waves_1.vcd
$date
	Tue Mar 31 22:07:21 2026
$end
$version
	QuestaSim Version 2025.1_1
$end
$timescale
	1ps
$end

$scope module tb_regfile $end
$var reg 1 ! clk $end

$scope module dut $end
$var wire 1 " clk $end
$var wire 1 # rst_n $end
$var wire 1 $ wr_en $end
$var wire 1 % wr_addr [4] $end
$var wire 1 & wr_addr [3] $end
$var wire 1 ' wr_addr [2] $end
$var wire 1 ( wr_addr [1] $end
$var wire 1 ) wr_addr [0] $end
$var wire 1 * wr_data [15] $end
$var wire 1 + wr_data [14] $end
$var wire 1 , wr_data [13] $end
$var wire 1 - wr_data [12] $end
$var wire 1 . wr_data [11] $end
$var wire 1 / wr_data [10] $end
$var wire 1 0 wr_data [9] $end
$var wire 1 1 wr_data [8] $end
$var wire 1 2 wr_data [7] $end
$var wire 1 3 wr_data [6] $end
$var wire 1 4 wr_data [5] $end
$var wire 1 5 wr_data [4] $end
$var wire 1 6 wr_data [3] $end
$var wire 1 7 wr_data [2] $end
$var wire 1 8 wr_data [1] $end
$var wire 1 9 wr_data [0] $end
$var wire 1 : rd_addr1 [4] $end
$var wire 1 ; rd_addr1 [3] $end
$var wire 1 < rd_addr1 [2] $end
$var wire 1 = rd_addr1 [1] $end
$var wire 1 > rd_addr1 [0] $end
$var wire 1 ? rd_addr2 [4] $end
$var wire 1 @ rd_addr2 [3] $end
$var wire 1 A rd_addr2 [2] $end
$var wire 1 B rd_addr2 [1] $end
$var wire 1 C rd_addr2 [0] $end
$var reg 16 D rd_data1 [15:0] $end
$var reg 16 E rd_data2 [15:0] $end
$var reg 1 F err $end
$upscope $end

$scope module property_checker $end
$var wire 1 G clk $end
$var wire 1 H rst_n $end
$var wire 1 I wr_en $end
$var wire 1 J err $end
$var wire 1 K wr_addr [4] $end
$var wire 1 L wr_addr [3] $end
$var wire 1 M wr_addr [2] $end
$var wire 1 N wr_addr [1] $end
$var wire 1 O wr_addr [0] $end
$var wire 1 P rd_addr1 [4] $end
$var wire 1 Q rd_addr1 [3] $end
$var wire 1 R rd_addr1 [2] $end
$var wire 1 S rd_addr1 [1] $end
$var wire 1 T rd_addr1 [0] $end
$var wire 1 U rd_addr2 [4] $end
$var wire 1 V rd_addr2 [3] $end
$var wire 1 W rd_addr2 [2] $end
$var wire 1 X rd_addr2 [1] $end
$var wire 1 Y rd_addr2 [0] $end
$var reg 1 Z is_illegal $end
$upscope $end
$upscope $end
$enddefinitions $end
#0
$dumpvars
0!
bx D
bx E
xF
xZ
xY
xX
xW
xV
xU
xT
xS
xR
xQ
xP
xO
xN
xM
xL
xK
xJ
xI
xH
0G
xC
xB
xA
x@
x?
x>
x=
x<
x;
x:
x9
x8
x7
x6
x5
x4
x3
x2
x1
x0
x/
x.
x-
x,
x+
x*
x)
x(
x'
x&
x%
x$
x#
0"
$end
#5000
1!
1"
1G
0#
0H
0$
0I
1Y
0X
0W
0V
0U
0T
0S
0R
0Q
0P
09
08
07
06
05
04
03
02
01
00
0/
0.
0-
0,
0+
0*
0O
0N
0M
0L
0K
0)
0(
0'
0&
0%
0Z
1C
0B
0A
0@
0?
0>
0=
0<
0;
0:
#10000
0!
0"
0G
#15000
1!
1"
1G
0F
0J
b0 D
b0 E
1#
1H
#20000
0!
0"
0G
#25000
1!
1"
1G
1$
1I
0Y
1W
1V
1T
1S
1Q
1-
0C
1A
1@
1>
1=
1;
#30000
0!
0"
0G
#35000
1!
1"
1G
19
1O
1)
#40000
0!
0"
0G
#45000
1!
1"
1G
09
18
0O
1N
0)
1(
#50000
0!
0"
0G
#55000
1!
1"
1G
19
1O
1)
#60000
0!
0"
0G
#65000
1!
1"
1G
09
08
17
0O
0N
1M
0)
0(
1'
#70000
0!
0"
0G
#75000
1!
1"
1G
19
1O
1)
#80000
0!
0"
0G
#85000
1!
1"
1G
09
18
0O
1N
0)
1(
#90000
0!
0"
0G
#95000
1!
1"
1G
19
1O
1)
#100000
0!
0"
0G
#105000
1!
1"
1G
09
08
07
16
0O
0N
0M
1L
0)
0(
0'
1&
#110000
0!
0"
0G
#115000
1!
1"
1G
19
1O
1)
#120000
0!
0"
0G
#125000
1!
1"
1G
0#
0H
0$
0I
0W
0V
0T
0S
0Q
09
06
0-
0O
0L
0)
0&
1Z
0A
0@
0>
0=
0;
b1000000000000 D
b1000000000000 E
#130000
0!
0"
0G
#135000
1!
1"
1G
b0 D
b0 E
1#
1H
1Y
1X
1V
0Z
1C
1B
1@
#140000
0!
0"
0G
#145000
1!
1"
1G
1T
1>
#150000
0!
0"
0G
#155000
1!
1"
1G
0T
1S
0>
1=
#160000
0!
0"
0G
#165000
1!
1"
1G
1T
1>
#170000
0!
0"
0G
#175000
1!
1"
1G
0T
0S
1R
0>
0=
1<
#180000
0!
0"
0G
#185000
1!
1"
1G
1T
1>
#190000
0!
0"
0G
#195000
1!
1"
1G
0T
1S
0>
1=
#200000
0!
0"
0G
#205000
1!
1"
1G
1T
1>
#210000
0!
0"
0G
#215000
1!
1"
1G
0T
0S
0R
1Q
0>
0=
0<
1;
#220000
0!
0"
0G
#225000
1!
1"
1G
1T
1>
#230000
0!
0"
0G
#235000
1!
1"
1G
0#
0H
0Y
0X
0V
0T
0Q
1Z
0C
0B
0@
0>
0;
#240000
0!
0"
0G
#245000
1!
1"
1G
1#
1H
1Y
0Z
1C
#250000
0!
0"
0G
#255000
1!
1"
1G
1$
1I
14
12
11
1+
1*
1N
1(
#260000
0!
0"
0G
#265000
1!
1"
1G
19
1O
1)
#270000
0!
0"
0G
#275000
1!
1"
1G
0$
0I
1X
1S
09
04
02
01
0+
0*
0O
0N
0)
0(
1B
1=
b1100000110100000 D
b1100000110100001 E
#280000
0!
0"
0G
#285000
1!
1"
1G
0Y
0X
1W
0S
1R
1M
1'
1Z
0C
0B
1A
0=
1<
b0 D
b0 E
#290000
0!
0"
0G
#295000
1!
1"
1G
1Y
0Z
1C
#300000
0!
0"
0G
#305000
1!
1"
1G
18
16
14
12
10
1.
1,
1*
#310000
0!
0"
0G
#315000
1!
1"
1G
1$
1I
1T
1O
1)
1Z
1>
bx D
bx E
#320000
0!
0"
0G
#325000
1!
1"
1G
1F
1J
0T
0O
0)
0>
#330000
0!
0"
0G
#335000
1!
1"
1G
1T
1O
1)
1>
#340000
0!
0"
0G
#345000
1!
1"
1G
0$
0I
0Y
0W
1U
0T
1S
1Q
08
17
06
1/
0M
1L
0'
1&
0Z
0C
0A
1?
0>
1=
1;
b0 D
b0 E
#350000
0!
0"
0G
#355000
1!
1"
1G
0F
0J
1Y
1V
0U
18
07
16
15
02
0.
1-
0,
0*
1C
1@
0?
#360000
0!
0"
0G
#365000
1!
1"
1G
0Y
1X
0V
1U
1T
0S
0Q
19
08
17
06
04
13
11
00
1+
0O
1N
1M
0)
1(
1'
0C
1B
0@
1?
1>
0=
0;
#370000
0!
0"
0G
#375000
1!
1"
1G
1Y
0X
1V
0U
0T
18
07
05
14
03
12
01
10
1.
1C
0B
1@
0?
0>
#380000
0!
0"
0G
#385000
1!
1"
1G
0Y
0V
1U
1S
0R
1P
08
15
13
02
11
0/
0-
1,
0+
0M
0L
1K
0'
0&
1%
0C
0@
1?
1=
0<
1:
#390000
0!
0"
0G
#395000
1!
1"
1G
1$
1I
1T
0S
1R
05
03
12
1-
1+
1*
1O
0N
1M
0K
1)
0(
1'
0%
1>
0=
1<
#400000
0!
0"
0G
#405000
1!
1"
1G
0$
0I
1Y
1X
1W
1V
0U
1S
0R
17
16
04
13
0-
0,
0*
0O
0M
1L
0)
0'
1&
1C
1B
1A
1@
0?
1=
0<
#410000
0!
0"
0G
#415000
1!
1"
1G
0X
1U
1R
06
15
14
02
00
1/
1,
1M
1K
1'
1%
0B
1?
1<
#420000
0!
0"
0G
#425000
1!
1"
1G
0Y
1X
0W
0V
0T
1Q
0P
18
16
05
04
12
0/
0.
0+
1O
0K
1)
0%
0C
1B
0A
0@
0>
1;
0:
#430000
0!
0"
0G
#435000
1!
1"
1G
1W
1V
1P
09
07
14
01
1.
1-
0,
0M
0L
0'
0&
1Z
1A
1@
1:
#440000
0!
0"
0G
#445000
1!
1"
1G
1Y
0U
1T
0P
19
08
15
04
03
1/
0.
0-
1,
1+
1N
1M
1L
1(
1'
1&
1C
0?
1>
0:
#450000
0!
0"
0G
#455000
1!
1"
1G
0Y
0W
0V
0R
0Q
09
17
14
02
10
1.
1-
0,
0O
0N
0M
0)
0(
0'
0Z
0C
0A
0@
0<
0;
b1100000110100001 D
b1100000110100000 E
#460000
0!
0"
0G
#465000
1!
1"
1G
1Y
0X
1V
0T
1R
19
05
13
12
11
0/
0.
1,
1*
1O
0L
1K
1)
0&
1%
1C
0B
1@
0>
1<
b0 D
b0 E
#470000
0!
0"
0G
#475000
1!
1"
1G
1X
1U
1T
0S
0R
1P
07
06
04
02
00
0-
0,
0*
0O
1N
1L
0K
0)
1(
1&
0%
1B
1?
1>
0=
0<
1:
#480000
0!
0"
0G
#485000
1!
1"
1G
0X
0T
1S
0P
18
17
15
14
03
12
01
1,
0L
1K
0&
1%
0B
0>
1=
0:
b1100000110100000 D
#490000
0!
0"
0G
#495000
1!
1"
1G
1$
1I
0Y
1X
1W
1R
1Q
1P
08
16
02
0,
1O
0N
1L
0K
1)
0(
1&
0%
1Z
0C
1B
1A
1<
1;
1:
b0 D
#500000
0!
0"
0G
#505000
1!
1"
1G
0$
0I
0X
0W
0U
0S
18
06
04
13
12
11
1/
1-
1,
0+
0O
1M
0)
1'
0Z
0B
0A
0?
0=
#510000
0!
0"
0G
#515000
1!
1"
1G
1$
1I
1X
1W
1U
1S
0Q
09
16
05
14
10
1.
1N
1K
1(
1%
1Z
1B
1A
1?
1=
0;
bx D
bx E
#520000
0!
0"
0G
#525000
1!
1"
1G
1F
1J
0$
0I
0X
0W
0V
0S
0R
19
07
02
01
00
0/
0-
1*
1O
0N
0K
1)
0(
0%
0B
0A
0@
0=
0<
b0 D
b0 E
#530000
0!
0"
0G
#535000
1!
1"
1G
0F
0J
1$
1I
1V
0U
1S
1R
17
04
03
11
1/
0.
1-
1+
0O
1N
0M
0L
0)
1(
0'
0&
0Z
1@
0?
1=
1<
#540000
0!
0"
0G
#545000
1!
1"
1G
1W
1T
0R
1Q
09
07
06
14
10
1.
0,
0+
1L
1K
1&
1%
1A
1>
0<
1;
#550000
0!
0"
0G
#555000
1!
1"
1G
0$
0I
1Y
0W
0S
0P
19
17
15
12
01
0-
1+
1O
0N
0K
1)
0(
0%
1Z
1C
0A
0=
0:
b100000000111101 D
b100000000111101 E
#560000
0!
0"
0G
#565000
1!
1"
1G
1$
1I
0Y
1W
0T
0Q
08
07
04
13
02
00
0.
1-
0+
0*
1N
0L
1(
0&
0Z
0C
1A
0>
0;
b0 D
b0 E
#570000
0!
0"
0G
#575000
1!
1"
1G
1Y
1R
17
16
12
10
1.
0-
1+
1K
1%
1C
1<
#580000
0!
0"
0G
#585000
1!
1"
1G
0Y
0W
1S
07
06
05
14
03
11
00
1-
1,
1M
1L
0K
1'
1&
0%
0C
0A
1=
#590000
0!
0"
0G
#595000
1!
1"
1G
1X
0V
1U
0R
1P
09
16
02
01
10
0/
0-
0+
1Z
1B
0@
1?
0<
1:
#600000
0!
0"
0G
#605000
1!
1"
1G
0X
1W
1V
0U
0S
1R
1Q
0P
18
06
0.
1+
0O
0N
0M
0L
0)
0(
0'
0&
0B
1A
1@
0?
0=
1<
1;
0:
#610000
0!
0"
0G
#615000
1!
1"
1G
0$
0I
1Y
1U
1T
0R
16
12
11
00
1/
1.
1*
1N
1M
1K
1(
1'
1%
0Z
1C
1?
1>
0<
b100000000111101 D
#620000
0!
0"
0G
#625000
1!
1"
1G
1$
1I
0V
0U
0T
1S
1R
0Q
1P
19
17
06
15
02
0.
1-
0,
0N
1L
0K
0(
1&
0%
0@
0?
0>
1=
1<
0;
1:
b0 D
b1111101110100001 E
#630000
0!
0"
0G
#635000
1!
1"
1G
0$
0I
0W
1V
1U
1T
0P
07
16
04
13
10
0-
1,
0+
0*
0L
1K
0&
1%
0A
1@
1?
1>
0:
b0 E
#640000
0!
0"
0G
#645000
1!
1"
1G
1$
1I
1W
0V
1P
17
06
05
14
03
01
1.
0M
0'
1A
0@
1:
#650000
0!
0"
0G
#655000
1!
1"
1G
1X
0W
0U
0S
1Q
0P
08
15
04
13
11
00
0.
0,
1*
1M
1L
0K
1'
1&
0%
1B
0A
0?
0=
1;
0:
b1010001010001 E
#660000
0!
0"
0G
#665000
1!
1"
1G
0X
1V
0T
0R
0Q
18
16
14
12
10
1.
1-
1,
1+
1O
0L
1)
0&
0B
1@
0>
0<
0;
b110001000100010 D
b100000000111101 E
#670000
0!
0"
0G
#675000
1!
1"
1G
0$
0I
0Y
1W
1T
1R
1Q
1P
05
04
00
0,
0*
1N
1L
1K
1(
1&
1%
0C
1A
1>
1<
1;
1:
b0 D
b1000010101010101 E
#680000
0!
0"
0G
#685000
1!
1"
1G
0W
0V
1U
0Q
06
01
10
0/
1,
0+
0N
0L
0(
0&
0A
0@
1?
0;
b10111000100111 E
#690000
0!
0"
0G
#695000
1!
1"
1G
1$
1I
1X
0U
0T
0R
1Q
09
08
15
14
03
02
11
00
1/
0.
0-
0,
1+
0O
0)
1B
0?
0>
0<
1;
b1111010100001111 E
#700000
0!
0"
0G
#705000
1!
1"
1G
0$
0I
1Y
0X
1W
1U
0P
19
12
01
10
1.
0+
1L
0K
1&
0%
1C
0B
1A
1?
0:
b0 E
#710000
0!
0"
0G
#715000
1!
1"
1G
0Y
1X
0W
1S
0Q
1P
11
0.
1,
1+
1*
1N
0M
0L
1K
1(
0'
0&
1%
1Z
0C
1B
0A
1=
0;
1:
#720000
0!
0"
0G
#725000
1!
1"
1G
1$
1I
0X
1W
1T
1R
1Q
09
18
05
02
00
0/
1.
0N
0K
0(
0%
0Z
0B
1A
1>
1<
1;
b100010100110100 E
#730000
0!
0"
0G
#735000
1!
1"
1G
0$
0I
1Y
1V
0S
0P
19
08
16
15
13
12
01
1/
0.
0+
1O
1N
1)
1(
1C
1@
0=
0:
b0 E
#740000
0!
0"
0G
#745000
1!
1"
1G
1X
0V
1S
0R
1P
18
07
06
05
02
1-
0*
1M
1K
1'
1%
1B
0@
1=
0<
1:
#750000
0!
0"
0G
#755000
1!
1"
1G
0Y
1V
0T
0S
0P
08
03
10
1.
0-
1+
1*
0K
0%
0C
1@
0>
0=
0:
#760000
0!
0"
0G
#765000
1!
1"
1G
1Y
0V
1T
1S
1R
18
17
16
13
11
00
1-
0*
0M
1L
0'
1&
1C
0@
1>
1=
1<
b10101000101000 D
#770000
0!
0"
0G
#775000
1!
1"
1G
0X
0W
0U
0S
0R
0Q
1P
08
07
06
04
01
10
0/
0.
0-
0,
0+
1*
0N
0L
1K
0(
0&
1%
0B
0A
0?
0=
0<
0;
1:
b0 D
#780000
0!
0"
0G
#785000
1!
1"
1G
1W
1V
1U
1S
0P
09
18
14
11
00
1.
1-
1,
0*
0O
1N
1M
1L
0)
1(
1'
1&
1A
1@
1?
1=
0:
b1010001010001 D
#790000
0!
0"
0G
#795000
1!
1"
1G
0Y
0T
0S
1R
1P
16
15
04
03
12
01
10
1/
1+
1*
0N
0L
0(
0&
0C
0>
0=
1<
1:
b100010100110100 D
#800000
0!
0"
0G
#805000
1!
1"
1G
1$
1I
1Y
0W
0V
1T
1S
17
13
02
11
0-
0,
0+
0*
1O
1N
1)
1(
1Z
1C
0A
0@
1>
1=
bx D
bx E
#810000
0!
0"
0G
#815000
1!
1"
1G
1F
1J
0#
0H
0$
0I
0Y
0U
0T
0S
0R
0P
08
06
05
01
0.
1,
1*
1L
0K
1&
0%
0C
0?
0>
0=
0<
0:
b1110100100100110 D
b1110100100100110 E
#820000
0!
0"
0G
#825000
1!
1"
1G
0F
0J
b0 D
b0 E
1$
1I
1Y
1X
1U
1S
1R
18
07
14
00
0Z
1C
1B
1?
1=
1<
#830000
0!
0"
0G
#835000
1!
1"
1G
1#
1H
0Y
0U
0S
04
11
10
1.
0O
0N
0L
0)
0(
0&
1Z
0C
0?
0=
bx D
bx E
#840000
0!
0"
0G
#845000
1!
1"
1G
1F
1J
1Y
0X
1V
1T
1S
1Q
08
17
16
15
03
01
00
0/
0.
1N
0M
1(
0'
0Z
1C
0B
1@
1>
1=
1;
b0 D
b0 E
#850000
0!
0"
0G
#855000
1!
1"
1G
0F
0J
1W
0V
1U
0S
0R
0Q
18
06
12
11
10
1.
1O
0N
1K
1)
0(
1%
1A
0@
1?
0=
0<
0;
#860000
0!
0"
0G
#865000
1!
1"
1G
0$
0I
0Y
0U
0T
1R
07
16
05
14
02
1/
1-
0,
0*
1M
1'
1Z
0C
0?
0>
1<
#870000
0!
0"
0G
#875000
1!
1"
1G
1Y
0W
1V
1T
0R
1P
19
17
04
13
01
0.
0-
1,
1+
0O
1N
1L
0K
0)
1(
1&
0%
0Z
1C
0A
1@
1>
0<
1:
b1010101110010110 D
#880000
0!
0"
0G
#885000
1!
1"
1G
0#
0H
1W
1U
0T
0P
08
07
14
03
11
0/
1.
0+
1*
1K
1%
1A
1?
0>
0:
b0 D
#890000
0!
0"
0G
#895000
1!
1"
1G
1#
1H
1$
1I
0Y
0U
1S
1Q
1P
18
06
04
13
01
1-
0,
0*
0M
0L
0'
0&
0C
0?
1=
1;
1:
#900000
0!
0"
0G
#905000
1!
1"
1G
0$
0I
1X
0V
1T
0Q
09
08
03
12
11
00
1/
0.
1O
1M
1L
0K
1)
1'
1&
0%
1B
0@
1>
0;
#910000
0!
0"
0G
#915000
1!
1"
1G
1$
1I
0T
1R
0P
18
17
16
15
13
01
0O
0)
1Z
0>
1<
0:
#920000
0!
0"
0G
#925000
1!
1"
1G
1Y
0X
0W
1U
1T
0S
0R
1P
19
08
06
02
11
1+
0L
0&
1C
0B
0A
1?
1>
0=
0<
1:
#930000
0!
0"
0G
#935000
1!
1"
1G
0$
0I
0Y
1X
0T
1R
0P
01
10
0/
0-
1,
0+
0N
0M
1K
0(
0'
1%
0Z
0C
1B
0>
1<
0:
b1101001000011 E
#940000
0!
0"
0G
#945000
1!
1"
1G
1$
1I
1S
0R
1P
09
05
1+
1*
0K
0%
1Z
1=
0<
1:
b1101001000011 D
#950000
0!
0"
0G
#955000
1!
1"
1G
1W
1V
0S
18
07
15
14
03
12
1.
0,
0+
0*
1N
1L
1K
1(
1&
1%
0Z
1A
1@
0=
b0 D
b0 E
#960000
0!
0"
0G
#965000
1!
1"
1G
0#
0H
0X
0V
0U
1R
0P
19
08
17
16
04
02
00
1/
0.
1-
1+
1*
0N
1M
0L
0K
0(
1'
0&
0%
1Z
0B
0@
0?
1<
0:
bx D
bx E
#970000
0!
0"
0G
#975000
1!
1"
1G
1#
1H
0W
1Q
09
18
07
06
14
12
1.
0-
0*
1O
1N
1)
1(
0Z
0A
1;
b0 D
b0 E
#980000
0!
0"
0G
#985000
1!
1"
1G
1Y
1W
1V
1U
1S
0Q
1P
16
13
11
0.
1-
1,
1*
0O
0M
0)
0'
1C
1A
1@
1?
1=
0;
1:
#990000
0!
0"
0G
#995000
1!
1"
1G
0$
0I
1X
1T
08
06
05
03
10
0+
0*
1O
1)
1B
1>
#1000000
0!
0"
0G
#1005000
1!
1"
1G
1$
1I
0X
0W
0U
0S
0P
18
15
04
02
0/
1.
0-
0,
1+
1*
0N
1M
0(
1'
1Z
0B
0A
0?
0=
0:
bx D
bx E
#1010000
0!
0"
0G
#1015000
1!
1"
1G
1F
1J
0$
0I
0Y
1X
1W
0T
1S
0R
1Q
19
17
16
14
01
00
1/
0.
1,
0+
0*
0O
1N
1L
0)
1(
1&
0Z
0C
1B
1A
0>
1=
0<
1;
b0 D
b0 E
#1020000
0!
0"
0G
#1025000
1!
1"
1G
0F
0J
1$
1I
0X
0V
1U
1T
0S
0Q
09
07
05
04
12
10
1-
0,
1+
1*
1O
0N
0M
0L
1)
0(
0'
0&
1Z
0B
0@
1?
1>
0=
0;
bx D
bx E
#1030000
0!
0"
0G
#1035000
1!
1"
1G
1F
1J
1Y
0T
1R
1P
19
08
17
06
15
13
02
11
00
0*
0O
1L
1K
0)
1&
1%
0Z
1C
0>
1<
1:
b0 D
b0 E
#1040000
0!
0"
0G
#1045000
1!
1"
1G
0F
0J
0Y
1X
0W
1V
1S
0R
1Q
07
05
03
01
1,
1*
1N
0L
0K
1(
0&
0%
1Z
0C
1B
0A
1@
1=
0<
1;
#1050000
0!
0"
0G
#1055000
1!
1"
1G
1W
0U
1R
0P
09
18
17
16
14
11
10
0/
1.
0-
0,
0N
0(
1A
0?
1<
0:
#1060000
0!
0"
0G
#1065000
1!
1"
1G
1Y
1U
0R
19
12
01
00
1/
1,
0*
1O
1N
1)
1(
0Z
1C
1?
0<
#1070000
0!
0"
0G
#1075000
1!
1"
1G
0V
0Q
15
13
11
10
1-
1*
0O
1L
1K
0)
1&
1%
0@
0;
b1111010000000001 D
#1080000
0!
0"
0G
#1085000
1!
1"
1G
0$
0I
0X
1V
0U
1Q
1P
08
06
04
02
00
0.
0,
0*
1O
0N
0L
1)
0(
0&
0B
1@
0?
1;
1:
b1111111111111111 D
#1090000
0!
0"
0G
#1095000
1!
1"
1G
1$
1I
0Y
0W
1T
0S
09
07
16
05
12
01
10
0/
0-
1*
1M
1L
1'
1&
0C
0A
1>
0=
b0 D
#1100000
0!
0"
0G
#1105000
1!
1"
1G
0V
1U
1S
0P
18
15
14
11
1-
0K
0%
0@
1?
1=
0:
#1110000
0!
0"
0G
#1115000
1!
1"
1G
0$
0I
1Y
1X
1W
0U
0S
0Q
08
06
05
02
01
00
1,
0M
0'
1C
1B
1A
0?
0=
0;
b100110010110010 E
#1120000
0!
0"
0G
#1125000
1!
1"
1G
0Y
0X
0W
1V
1U
1R
18
16
04
11
0,
0+
1N
0L
1(
0&
0C
0B
0A
1@
1?
1<
b101010101010101 E
#1130000
0!
0"
0G
#1135000
1!
1"
1G
0V
0U
19
17
15
03
12
10
0-
1+
0*
0O
1L
0)
1&
0@
0?
b1100101100101110 E
#1140000
0!
0"
0G
#1145000
1!
1"
1G
1$
1I
1W
1V
1U
0T
1Q
1P
09
14
02
1/
1.
1-
1*
1M
0L
1K
1'
0&
1%
1Z
1A
1@
1?
0>
1;
1:
b0 E
#1150000
0!
0"
0G
#1155000
1!
1"
1G
0$
0I
1Y
1X
0W
0U
1T
1S
0R
0P
06
04
01
0/
0.
1,
1O
0N
0M
1L
0K
1)
0(
0'
1&
0%
1C
1B
0A
0?
1>
1=
0<
0:
#1160000
0!
0"
0G
#1165000
1!
1"
1G
1$
1I
0Y
1W
0V
0T
0S
1R
07
16
05
14
13
11
00
1/
1.
0+
0O
0L
0)
0&
0Z
0C
1A
0@
0>
0=
1<
#1170000
0!
0"
0G
#1175000
1!
1"
1G
0$
0I
0X
0W
1V
1U
1T
0R
1P
17
06
15
12
01
10
0.
1+
0*
1N
1M
1(
1'
0B
0A
1@
1?
1>
0<
1:
b101010101010101 E
#1180000
0!
0"
0G
#1185000
1!
1"
1G
1$
1I
1Y
0V
0T
1S
0Q
19
16
04
03
11
0-
0,
0+
0M
0'
1C
0@
0>
1=
0;
b0 E
#1190000
0!
0"
0G
#1195000
1!
1"
1G
0Y
1V
1T
0S
1R
09
06
14
02
01
0/
1-
1*
0N
1L
1K
0(
1&
1%
1Z
0C
1@
1>
0=
1<
bx D
bx E
#1200000
0!
0"
0G
#1205000
1!
1"
1G
1F
1J
0$
0I
1Y
1W
0V
05
04
13
11
00
1/
0-
1O
1M
0L
1)
1'
0&
1C
1A
0@
b0 D
b0 E
#1210000
0!
0"
0G
#1215000
1!
1"
1G
0F
0J
1$
1I
1V
0U
1S
19
07
16
14
03
12
01
0/
1,
0O
1L
0)
1&
0Z
1@
0?
1=
b1101001111111010 E
#1220000
0!
0"
0G
#1225000
1!
1"
1G
1X
0W
0V
1U
0T
0S
1Q
09
08
06
02
11
1/
0,
1+
0*
0L
0&
1B
0A
0@
1?
0>
0=
1;
b1010000010101011 D
b0 E
#1230000
0!
0"
0G
#1235000
1!
1"
1G
0$
0I
0X
1V
0U
19
13
1.
1N
1L
0K
1(
1&
0%
0B
1@
0?
#1240000
0!
0"
0G
#1245000
1!
1"
1G
1U
1T
0R
0P
09
16
01
10
0.
0+
1*
1O
0M
1K
1)
0'
1%
1?
1>
0<
0:
b0 D
#1250000
0!
0"
0G
#1255000
1!
1"
1G
0Y
1W
0Q
1P
19
18
17
15
04
03
12
11
1-
1,
0*
0L
0&
0C
1A
0;
1:
b1010000010101011 E
#1260000
0!
0"
0G
#1265000
1!
1"
1G
1$
1I
1Y
1X
0V
0T
1S
1R
1Q
09
07
05
13
02
00
0-
1+
0O
1M
0K
0)
1'
0%
1C
1B
0@
0>
1=
1<
1;
b0 E
#1270000
0!
0"
0G
#1275000
1!
1"
1G
0Y
0X
0W
1V
0U
0S
0R
0P
17
06
14
03
10
0/
0,
0+
1*
0N
1K
0(
1%
1Z
0C
0B
0A
1@
0?
0=
0<
0:
#1280000
0!
0"
0G
#1285000
1!
1"
1G
0$
0I
1Y
1X
1W
1U
1S
0Q
19
08
07
15
04
13
12
01
1/
1+
1O
1L
0K
1)
1&
0%
0Z
1C
1B
1A
1?
1=
0;
b11110011111 D
#1290000
0!
0"
0G
#1295000
1!
1"
1G
0Y
0X
0U
1R
09
18
05
14
02
11
00
0+
0*
0M
0'
0C
0B
0?
1<
b110010101001010 D
#1300000
0!
0"
0G
#1305000
1!
1"
1G
0#
0H
1X
0W
0V
1U
19
16
15
03
12
01
1-
1,
1N
1M
1(
1'
1B
0A
0@
1?
#1310000
0!
0"
0G
#1315000
1!
1"
1G
b0 D
1$
1I
1Y
0U
0S
0R
1Q
1P
09
08
17
06
04
13
02
10
0/
0O
0M
0L
1K
0)
0'
0&
1%
1C
0?
0=
0<
1;
1:
#1320000
0!
0"
0G
#1325000
1!
1"
1G
1#
1H
0Y
1S
0Q
0P
07
05
03
00
0-
0,
0N
0K
0(
0%
1Z
0C
1=
0;
0:
#1330000
0!
0"
0G
#1335000
1!
1"
1G
1W
1V
1T
1Q
18
17
14
13
12
1/
1.
1*
1O
1N
1L
1)
1(
1&
1A
1@
1>
1;
bx D
bx E
#1340000
0!
0"
0G
#1345000
1!
1"
1G
1F
1J
0$
0I
0X
0W
1U
0T
0S
1P
03
02
11
10
0/
1-
1+
0*
0N
0L
1K
0(
0&
1%
0B
0A
1?
0>
0=
1:
b0 D
b0 E
#1350000
0!
0"
0G
#1355000
1!
1"
1G
0F
0J
1X
0V
1S
0Q
0P
08
15
13
12
0.
1,
0+
1M
1'
0Z
1B
0@
1=
0;
0:
#1360000
0!
0"
0G
#1365000
1!
1"
1G
1Y
1V
0U
1T
1R
1Q
19
18
05
03
01
00
1.
1*
1C
1@
0?
1>
1<
1;
#1370000
0!
0"
0G
#1375000
1!
1"
1G
1$
1I
0Y
0X
1W
0S
04
10
0-
0,
1+
0*
1N
0M
1L
1(
0'
1&
0C
0B
1A
0=
#1380000
0!
0"
0G
#1385000
1!
1"
1G
0$
0I
0T
1S
0R
0Q
1P
07
15
14
02
00
1-
0+
0O
0N
0)
0(
0>
1=
0<
0;
1:
#1390000
0!
0"
0G
#1395000
1!
1"
1G
1Y
1X
0V
1U
0P
08
17
05
04
13
12
11
1/
1,
1+
1*
1O
1N
0L
1)
1(
0&
1C
1B
0@
1?
0:
#1400000
0!
0"
0G
#1405000
1!
1"
1G
1$
1I
0W
1V
0S
1P
18
15
03
02
0+
0O
1M
1L
0)
1'
1&
0A
1@
0=
1:
b100101010000111 E
#1410000
0!
0"
0G
#1415000
1!
1"
1G
0X
1S
1R
0P
09
08
07
0/
0.
0-
1+
0L
0K
0&
0%
1Z
0B
1=
1<
0:
bx D
bx E
#1420000
0!
0"
0G
#1425000
1!
1"
1G
1F
1J
0V
0R
1P
19
17
13
1/
1-
0,
0*
0M
0'
0Z
0@
0<
1:
b0 D
b0 E
#1430000
0!
0"
0G
#1435000
1!
1"
1G
0F
0J
0$
0I
1W
1T
1Q
18
07
16
14
03
01
0/
1.
1O
0N
1M
1K
1)
0(
1'
1%
1A
1>
1;
b100101010000111 D
#1440000
0!
0"
0G
#1445000
1!
1"
1G
0W
0S
1R
0Q
0P
08
05
04
13
12
11
10
1/
0-
1,
0+
1*
0O
1N
0M
0K
0)
1(
0'
0%
0A
0=
1<
0;
0:
b0 D
#1450000
0!
0"
0G
#1455000
1!
1"
1G
1$
1I
0Y
1V
0T
1S
1Q
1P
06
14
00
1-
0,
1+
0*
1M
1L
1K
1'
1&
1%
1Z
0C
1@
0>
1=
1;
1:
bx D
bx E
#1460000
0!
0"
0G
#1465000
1!
1"
1G
1F
1J
1Y
1W
0V
0U
1T
0S
0R
0Q
0P
16
04
03
02
01
0.
0-
1*
0N
0M
0L
0(
0'
0&
0Z
1C
1A
0@
0?
1>
0=
0<
0;
0:
b0 D
b0 E
#1470000
0!
0"
0G
#1475000
1!
1"
1G
0F
0J
0Y
1X
0T
1R
1Q
1P
15
11
10
0/
1-
0+
0*
1N
1M
1(
1'
0C
1B
0>
1<
1;
1:
#1480000
0!
0"
0G
#1485000
1!
1"
1G
0$
0I
1Y
0W
1V
1U
0Q
18
05
01
00
0-
1,
1*
0N
0(
1C
0A
1@
1?
0;
b100101010000111 E
#1490000
0!
0"
0G
#1495000
1!
1"
1G
0Y
0X
0V
0U
0R
0P
08
17
14
1.
1-
0*
1O
0M
0K
1)
0'
0%
1Z
0C
0B
0@
0?
0<
0:
b0 E
#1500000
0!
0"
0G
#1505000
1!
1"
1G
1W
1V
1R
1Q
09
04
12
11
1/
0.
0,
1+
1*
1M
1L
1K
1'
1&
1%
1A
1@
1<
1;
#1510000
0!
0"
0G
