lab_3/transcript
# do run.do 0
# 0
# regfile_v0
# QuestaSim vlog 2025.1_1 Compiler 2025.02 Feb 13 2025
# Start time: 18:56:07 on Mar 28,2026
# vlog "+acc" "+define+DUT_NAME=regfile_v0" tb_regfile.sv 
# -- Compiling package constants
# -- Compiling package tb_regfile_sv_unit
# -- Importing package constants
# -- Compiling interface regfile_if
# -- Compiling module tb_regfile
# 
# Top level modules:
# 	tb_regfile
# End time: 18:56:08 on Mar 28,2026, Elapsed time: 0:00:01
# Errors: 0, Warnings: 0
# vsim work.tb_regfile 
# Start time: 18:56:08 on Mar 28,2026
# ** Note: (vsim-3813) Design is being optimized due to module recompilation...
# ** Warning: (vopt-10587) Some optimizations are turned off because the +acc switch is in effect. This will cause your simulation to run slowly. Please use -access/-debug to maintain needed visibility. The +acc switch would be deprecated in a future release.
# ** Note: (vsim-12126) Error and warning message counts have been restored: Errors=0, Warnings=1.
# //  Questa Sim
# //  Version 2025.1_1 linux Feb 13 2025
# //
# // Unpublished work. Copyright 2025 Siemens
# //
# // This material contains trade secrets or otherwise confidential information
# // owned by Siemens Industry Software Inc. or its affiliates (collectively,
# // "SISW"), or its licensors. Access to and use of this information is strictly
# // limited as set forth in the Customer's applicable agreements with SISW.
# //
# // This material may not be copied, distributed, or otherwise disclosed outside
# // of the Customer's facilities without the express written permission of SISW,
# // and may not be used in any way not expressly authorized by SISW.
# //
# Loading sv_std.std
# Loading work.constants(fast)
# Loading work.tb_regfile_sv_unit(fast)
# Loading work.tb_regfile(fast)
# Loading work.regfile_if(fast__2)
# Loading work.regfile_v0(fast)
# Loading work.regfile_if(fast)
# ** Note: (vsim-12125) Error and warning message counts have been reset to '0' because of 'restart'.
# ** Note: (vsim-8009) Loading existing optimized design _opt12
# ** Note: (vsim-12126) Error and warning message counts have been restored: Errors=0, Warnings=1.
# Loading work.constants(fast)
# Loading work.tb_regfile_sv_unit(fast)
# Loading work.tb_regfile(fast)
# Loading work.regfile_if(fast__2)
# Loading work.regfile_v0(fast)
# Loading work.regfile_if(fast)
# Time:    15000 | rst: 1 | en: 0 | wr_addr:  0 | wr_data: 0000 | err: 0 | rd_addr1: 22 | rd_addr2: 28 | rd_data1: 0000 | rd_data2: 0000 |
# Time:    25000 | rst: 1 | en: 0 | wr_addr:  0 | wr_data: 0000 | err: 0 | rd_addr1:  7 | rd_addr2: 15 | rd_data1: 0000 | rd_data2: 0000 |
# Time:    35000 | rst: 1 | en: 0 | wr_addr:  0 | wr_data: 0000 | err: 0 | rd_addr1:  4 | rd_addr2: 17 | rd_data1: 0000 | rd_data2: 0000 |
# Time:    45000 | rst: 1 | en: 0 | wr_addr:  0 | wr_data: 0000 | err: 0 | rd_addr1: 19 | rd_addr2:  9 | rd_data1: 0000 | rd_data2: 0000 |
# Time:    55000 | rst: 1 | en: 0 | wr_addr:  0 | wr_data: 0000 | err: 0 | rd_addr1: 26 | rd_addr2: 25 | rd_data1: 0000 | rd_data2: 0000 |
# Time:    65000 | rst: 1 | en: 0 | wr_addr:  0 | wr_data: 0000 | err: 0 | rd_addr1: 20 | rd_addr2:  6 | rd_data1: 0000 | rd_data2: 0000 |
# Time:    75000 | rst: 1 | en: 1 | wr_addr: 31 | wr_data: 3a62 | err: 0 | rd_addr1: 31 | rd_addr2:  4 | rd_data1: xxxx | rd_data2: xxxx |
# Time:    85000 | rst: 1 | en: 0 | wr_addr: 31 | wr_data: 3a62 | err: 1 | rd_addr1: 31 | rd_addr2:  5 | rd_data1: 0000 | rd_data2: 0000 |
# Time:    95000 | rst: 1 | en: 1 | wr_addr: 25 | wr_data: 80e4 | err: 0 | rd_addr1: 13 | rd_addr2:  7 | rd_data1: 0000 | rd_data2: 0000 |
# Time:   105000 | rst: 1 | en: 1 | wr_addr: 31 | wr_data: 2520 | err: 0 | rd_addr1: 23 | rd_addr2: 27 | rd_data1: 0000 | rd_data2: 0000 |
# Time:   115000 | rst: 1 | en: 0 | wr_addr: 31 | wr_data: 2520 | err: 0 | rd_addr1: 18 | rd_addr2: 13 | rd_data1: 0000 | rd_data2: 0000 |
# Time:   125000 | rst: 1 | en: 1 | wr_addr: 29 | wr_data: e95c | err: 0 | rd_addr1: 12 | rd_addr2: 23 | rd_data1: 0000 | rd_data2: 0000 |
# Time:   135000 | rst: 1 | en: 1 | wr_addr: 24 | wr_data: 621a | err: 0 | rd_addr1: 14 | rd_addr2: 30 | rd_data1: 0000 | rd_data2: 0000 |
# Time:   145000 | rst: 1 | en: 0 | wr_addr: 24 | wr_data: 621a | err: 0 | rd_addr1: 13 | rd_addr2: 31 | rd_data1: 0000 | rd_data2: 2520 |
# Time:   155000 | rst: 1 | en: 0 | wr_addr: 24 | wr_data: 621a | err: 0 | rd_addr1: 10 | rd_addr2:  1 | rd_data1: 0000 | rd_data2: 0000 |
# Time:   165000 | rst: 1 | en: 0 | wr_addr: 24 | wr_data: 621a | err: 0 | rd_addr1: 18 | rd_addr2: 21 | rd_data1: 0000 | rd_data2: 0000 |
# Time:   175000 | rst: 1 | en: 1 | wr_addr: 22 | wr_data: 1657 | err: 0 | rd_addr1: 21 | rd_addr2: 13 | rd_data1: 0000 | rd_data2: 0000 |
# Time:   185000 | rst: 1 | en: 1 | wr_addr: 14 | wr_data: 996e | err: 0 | rd_addr1:  1 | rd_addr2: 31 | rd_data1: 0000 | rd_data2: 2520 |
# Time:   195000 | rst: 1 | en: 0 | wr_addr: 14 | wr_data: 996e | err: 0 | rd_addr1: 21 | rd_addr2: 17 | rd_data1: 0000 | rd_data2: 0000 |
# Time:   205000 | rst: 1 | en: 0 | wr_addr: 14 | wr_data: 996e | err: 0 | rd_addr1:  0 | rd_addr2: 24 | rd_data1: 0000 | rd_data2: 621a |
# Time:   215000 | rst: 1 | en: 1 | wr_addr:  7 | wr_data: 001e | err: 0 | rd_addr1: 28 | rd_addr2:  7 | rd_data1: xxxx | rd_data2: xxxx |
# Time:   225000 | rst: 1 | en: 1 | wr_addr: 26 | wr_data: 1acf | err: 1 | rd_addr1:  5 | rd_addr2:  9 | rd_data1: 0000 | rd_data2: 0000 |
# Time:   235000 | rst: 1 | en: 1 | wr_addr: 17 | wr_data: 6212 | err: 0 | rd_addr1: 29 | rd_addr2: 13 | rd_data1: e95c | rd_data2: 0000 |
# Time:   245000 | rst: 1 | en: 1 | wr_addr: 22 | wr_data: cfdd | err: 0 | rd_addr1: 29 | rd_addr2: 24 | rd_data1: e95c | rd_data2: 621a |
# Time:   255000 | rst: 1 | en: 0 | wr_addr: 22 | wr_data: cfdd | err: 0 | rd_addr1: 28 | rd_addr2: 30 | rd_data1: 0000 | rd_data2: 0000 |
# Time:   265000 | rst: 1 | en: 1 | wr_addr: 18 | wr_data: d3ee | err: 0 | rd_addr1: 29 | rd_addr2: 24 | rd_data1: e95c | rd_data2: 621a |
# Time:   275000 | rst: 1 | en: 1 | wr_addr: 17 | wr_data: f72f | err: 0 | rd_addr1: 13 | rd_addr2: 23 | rd_data1: 0000 | rd_data2: 0000 |
# Time:   285000 | rst: 1 | en: 0 | wr_addr: 17 | wr_data: f72f | err: 0 | rd_addr1:  4 | rd_addr2: 27 | rd_data1: 0000 | rd_data2: 0000 |
# Time:   295000 | rst: 1 | en: 0 | wr_addr: 17 | wr_data: f72f | err: 0 | rd_addr1: 16 | rd_addr2:  9 | rd_data1: 0000 | rd_data2: 0000 |
# Time:   305000 | rst: 1 | en: 1 | wr_addr: 15 | wr_data: f081 | err: 0 | rd_addr1:  3 | rd_addr2: 22 | rd_data1: 0000 | rd_data2: cfdd |
# Time:   315000 | rst: 1 | en: 0 | wr_addr: 15 | wr_data: f081 | err: 0 | rd_addr1: 30 | rd_addr2: 22 | rd_data1: 0000 | rd_data2: cfdd |
# Time:   325000 | rst: 1 | en: 1 | wr_addr:  8 | wr_data: f5b3 | err: 0 | rd_addr1: 10 | rd_addr2: 28 | rd_data1: 0000 | rd_data2: 0000 |
# Time:   335000 | rst: 1 | en: 1 | wr_addr:  7 | wr_data: a819 | err: 0 | rd_addr1: 18 | rd_addr2:  2 | rd_data1: d3ee | rd_data2: 0000 |
# Time:   345000 | rst: 1 | en: 1 | wr_addr: 20 | wr_data: 7eca | err: 0 | rd_addr1: 13 | rd_addr2: 30 | rd_data1: 0000 | rd_data2: 0000 |
# Time:   355000 | rst: 1 | en: 0 | wr_addr: 20 | wr_data: 7eca | err: 0 | rd_addr1: 25 | rd_addr2: 24 | rd_data1: 80e4 | rd_data2: 621a |
# Time:   365000 | rst: 1 | en: 0 | wr_addr: 20 | wr_data: 7eca | err: 0 | rd_addr1:  3 | rd_addr2: 19 | rd_data1: 0000 | rd_data2: 0000 |
# Time:   375000 | rst: 1 | en: 1 | wr_addr: 19 | wr_data: 245c | err: 0 | rd_addr1: 12 | rd_addr2: 21 | rd_data1: 0000 | rd_data2: 0000 |
# Time:   385000 | rst: 1 | en: 0 | wr_addr: 19 | wr_data: 245c | err: 0 | rd_addr1: 10 | rd_addr2: 20 | rd_data1: 0000 | rd_data2: 7eca |
# Time:   395000 | rst: 1 | en: 1 | wr_addr: 15 | wr_data: fa0b | err: 0 | rd_addr1:  4 | rd_addr2: 29 | rd_data1: 0000 | rd_data2: e95c |
# Time:   405000 | rst: 1 | en: 1 | wr_addr: 10 | wr_data: 1dcf | err: 0 | rd_addr1: 29 | rd_addr2: 15 | rd_data1: e95c | rd_data2: fa0b |
# Time:   415000 | rst: 1 | en: 1 | wr_addr: 16 | wr_data: 76f5 | err: 0 | rd_addr1:  6 | rd_addr2:  6 | rd_data1: xxxx | rd_data2: xxxx |
# Time:   425000 | rst: 1 | en: 1 | wr_addr: 27 | wr_data: 19fa | err: 1 | rd_addr1: 30 | rd_addr2: 24 | rd_data1: 0000 | rd_data2: 621a |
# Time:   435000 | rst: 1 | en: 1 | wr_addr: 27 | wr_data: 4a8a | err: 0 | rd_addr1: 18 | rd_addr2:  5 | rd_data1: d3ee | rd_data2: 0000 |
# Time:   445000 | rst: 1 | en: 0 | wr_addr: 27 | wr_data: 4a8a | err: 0 | rd_addr1: 23 | rd_addr2:  7 | rd_data1: 0000 | rd_data2: a819 |
# Time:   455000 | rst: 1 | en: 0 | wr_addr: 27 | wr_data: 4a8a | err: 0 | rd_addr1:  9 | rd_addr2:  2 | rd_data1: 0000 | rd_data2: 0000 |
# Time:   465000 | rst: 1 | en: 0 | wr_addr: 27 | wr_data: 4a8a | err: 0 | rd_addr1: 30 | rd_addr2: 25 | rd_data1: 0000 | rd_data2: 80e4 |
# Time:   475000 | rst: 1 | en: 0 | wr_addr: 27 | wr_data: 4a8a | err: 0 | rd_addr1: 31 | rd_addr2: 30 | rd_data1: 2520 | rd_data2: 0000 |
# Time:   485000 | rst: 1 | en: 0 | wr_addr: 27 | wr_data: 4a8a | err: 0 | rd_addr1:  2 | rd_addr2: 25 | rd_data1: 0000 | rd_data2: 80e4 |
# Time:   495000 | rst: 1 | en: 0 | wr_addr: 27 | wr_data: 4a8a | err: 0 | rd_addr1: 31 | rd_addr2: 27 | rd_data1: 2520 | rd_data2: 4a8a |
# Time:   505000 | rst: 1 | en: 1 | wr_addr: 29 | wr_data: 3dfb | err: 0 | rd_addr1:  3 | rd_addr2: 22 | rd_data1: 0000 | rd_data2: cfdd |
# Time:   515000 | rst: 1 | en: 0 | wr_addr: 29 | wr_data: 3dfb | err: 0 | rd_addr1: 24 | rd_addr2: 31 | rd_data1: 621a | rd_data2: 2520 |
# Time:   525000 | rst: 1 | en: 1 | wr_addr: 30 | wr_data: a23d | err: 0 | rd_addr1: 16 | rd_addr2: 14 | rd_data1: 0000 | rd_data2: 996e |
# Time:   535000 | rst: 1 | en: 1 | wr_addr: 10 | wr_data: 8a03 | err: 0 | rd_addr1: 16 | rd_addr2: 24 | rd_data1: 0000 | rd_data2: 621a |
# Time:   545000 | rst: 1 | en: 1 | wr_addr:  1 | wr_data: 77b8 | err: 0 | rd_addr1: 18 | rd_addr2: 27 | rd_data1: d3ee | rd_data2: 4a8a |
# Time:   555000 | rst: 1 | en: 1 | wr_addr:  3 | wr_data: c802 | err: 0 | rd_addr1: 27 | rd_addr2: 30 | rd_data1: 4a8a | rd_data2: a23d |
# Time:   565000 | rst: 1 | en: 1 | wr_addr: 27 | wr_data: 2cab | err: 0 | rd_addr1: 25 | rd_addr2: 17 | rd_data1: 80e4 | rd_data2: f72f |
# Time:   575000 | rst: 1 | en: 1 | wr_addr:  7 | wr_data: 6ff9 | err: 0 | rd_addr1: 17 | rd_addr2: 31 | rd_data1: f72f | rd_data2: 2520 |
# Time:   585000 | rst: 1 | en: 1 | wr_addr: 17 | wr_data: b8a1 | err: 0 | rd_addr1: 16 | rd_addr2: 22 | rd_data1: 0000 | rd_data2: cfdd |
# Time:   595000 | rst: 1 | en: 0 | wr_addr: 17 | wr_data: b8a1 | err: 0 | rd_addr1:  1 | rd_addr2: 15 | rd_data1: 77b8 | rd_data2: fa0b |
# Time:   605000 | rst: 1 | en: 1 | wr_addr: 14 | wr_data: 0bf7 | err: 0 | rd_addr1: 21 | rd_addr2: 12 | rd_data1: 0000 | rd_data2: 0000 |
# Time:   615000 | rst: 1 | en: 1 | wr_addr: 10 | wr_data: 58d0 | err: 0 | rd_addr1: 20 | rd_addr2: 22 | rd_data1: 7eca | rd_data2: cfdd |
# Time:   625000 | rst: 1 | en: 0 | wr_addr: 10 | wr_data: 58d0 | err: 0 | rd_addr1:  3 | rd_addr2: 31 | rd_data1: c802 | rd_data2: 2520 |
# Time:   635000 | rst: 1 | en: 1 | wr_addr: 25 | wr_data: a094 | err: 0 | rd_addr1:  7 | rd_addr2: 16 | rd_data1: 6ff9 | rd_data2: 0000 |
# Time:   645000 | rst: 1 | en: 0 | wr_addr: 25 | wr_data: a094 | err: 0 | rd_addr1: 20 | rd_addr2:  9 | rd_data1: 7eca | rd_data2: 0000 |
# Time:   655000 | rst: 1 | en: 0 | wr_addr: 25 | wr_data: a094 | err: 0 | rd_addr1: 27 | rd_addr2: 17 | rd_data1: 2cab | rd_data2: b8a1 |
# Time:   665000 | rst: 1 | en: 0 | wr_addr: 25 | wr_data: a094 | err: 0 | rd_addr1: 20 | rd_addr2: 26 | rd_data1: 7eca | rd_data2: 1acf |
# Time:   675000 | rst: 1 | en: 1 | wr_addr: 11 | wr_data: 08f7 | err: 0 | rd_addr1: 16 | rd_addr2: 31 | rd_data1: 0000 | rd_data2: 2520 |
# Time:   685000 | rst: 1 | en: 0 | wr_addr: 11 | wr_data: 08f7 | err: 0 | rd_addr1: 31 | rd_addr2: 11 | rd_data1: 2520 | rd_data2: 08f7 |
# Time:   695000 | rst: 1 | en: 0 | wr_addr: 11 | wr_data: 08f7 | err: 0 | rd_addr1: 17 | rd_addr2: 19 | rd_data1: b8a1 | rd_data2: 245c |
# Time:   705000 | rst: 1 | en: 1 | wr_addr: 28 | wr_data: 15f3 | err: 0 | rd_addr1:  8 | rd_addr2: 14 | rd_data1: f5b3 | rd_data2: 0bf7 |
# Time:   715000 | rst: 1 | en: 1 | wr_addr:  4 | wr_data: db1b | err: 0 | rd_addr1: 20 | rd_addr2: 29 | rd_data1: 7eca | rd_data2: 3dfb |
# Time:   725000 | rst: 1 | en: 0 | wr_addr:  4 | wr_data: db1b | err: 0 | rd_addr1:  6 | rd_addr2: 11 | rd_data1: 0000 | rd_data2: 08f7 |
# Time:   735000 | rst: 1 | en: 0 | wr_addr:  4 | wr_data: db1b | err: 0 | rd_addr1: 26 | rd_addr2:  8 | rd_data1: 1acf | rd_data2: f5b3 |
# Time:   745000 | rst: 1 | en: 0 | wr_addr:  4 | wr_data: db1b | err: 0 | rd_addr1: 13 | rd_addr2:  8 | rd_data1: 0000 | rd_data2: f5b3 |
# Time:   755000 | rst: 1 | en: 1 | wr_addr: 23 | wr_data: 194e | err: 0 | rd_addr1: 23 | rd_addr2: 14 | rd_data1: xxxx | rd_data2: xxxx |
# Time:   765000 | rst: 1 | en: 0 | wr_addr: 23 | wr_data: 194e | err: 1 | rd_addr1: 17 | rd_addr2: 22 | rd_data1: b8a1 | rd_data2: cfdd |
# Time:   775000 | rst: 1 | en: 0 | wr_addr: 23 | wr_data: 194e | err: 0 | rd_addr1: 14 | rd_addr2: 25 | rd_data1: 0bf7 | rd_data2: a094 |
# Time:   785000 | rst: 1 | en: 0 | wr_addr: 23 | wr_data: 194e | err: 0 | rd_addr1: 19 | rd_addr2:  3 | rd_data1: 245c | rd_data2: c802 |
# Time:   795000 | rst: 1 | en: 0 | wr_addr: 23 | wr_data: 194e | err: 0 | rd_addr1: 23 | rd_addr2: 23 | rd_data1: xxxx | rd_data2: xxxx |
# Time:   805000 | rst: 1 | en: 1 | wr_addr: 11 | wr_data: 108b | err: 1 | rd_addr1: 18 | rd_addr2:  1 | rd_data1: d3ee | rd_data2: 77b8 |
# Time:   815000 | rst: 1 | en: 0 | wr_addr: 11 | wr_data: 108b | err: 0 | rd_addr1:  7 | rd_addr2:  6 | rd_data1: 6ff9 | rd_data2: 0000 |
# Time:   825000 | rst: 1 | en: 0 | wr_addr: 11 | wr_data: 108b | err: 0 | rd_addr1: 24 | rd_addr2: 27 | rd_data1: 621a | rd_data2: 2cab |
# Time:   835000 | rst: 1 | en: 1 | wr_addr: 18 | wr_data: 6d8e | err: 0 | rd_addr1: 25 | rd_addr2: 31 | rd_data1: a094 | rd_data2: 2520 |
# Time:   845000 | rst: 1 | en: 1 | wr_addr:  7 | wr_data: 6069 | err: 0 | rd_addr1: 27 | rd_addr2: 15 | rd_data1: 2cab | rd_data2: fa0b |
# Time:   855000 | rst: 1 | en: 1 | wr_addr: 23 | wr_data: be65 | err: 0 | rd_addr1: 19 | rd_addr2: 29 | rd_data1: 245c | rd_data2: 3dfb |
# Time:   865000 | rst: 1 | en: 1 | wr_addr: 19 | wr_data: 23a8 | err: 0 | rd_addr1: 30 | rd_addr2: 14 | rd_data1: a23d | rd_data2: 0bf7 |
# Time:   875000 | rst: 1 | en: 1 | wr_addr:  5 | wr_data: a632 | err: 0 | rd_addr1: 15 | rd_addr2: 29 | rd_data1: fa0b | rd_data2: 3dfb |
# Time:   885000 | rst: 1 | en: 1 | wr_addr: 18 | wr_data: 27e1 | err: 0 | rd_addr1:  3 | rd_addr2: 15 | rd_data1: c802 | rd_data2: fa0b |
# Time:   895000 | rst: 1 | en: 0 | wr_addr: 18 | wr_data: 27e1 | err: 0 | rd_addr1: 23 | rd_addr2: 11 | rd_data1: be65 | rd_data2: 108b |
# Time:   905000 | rst: 1 | en: 0 | wr_addr: 18 | wr_data: 27e1 | err: 0 | rd_addr1: 18 | rd_addr2:  0 | rd_data1: 27e1 | rd_data2: 0000 |
# Time:   915000 | rst: 1 | en: 1 | wr_addr:  8 | wr_data: 3767 | err: 0 | rd_addr1: 31 | rd_addr2: 17 | rd_data1: 2520 | rd_data2: b8a1 |
# Time:   925000 | rst: 1 | en: 1 | wr_addr:  1 | wr_data: 5030 | err: 0 | rd_addr1: 23 | rd_addr2: 30 | rd_data1: be65 | rd_data2: a23d |
# Time:   935000 | rst: 1 | en: 1 | wr_addr: 22 | wr_data: fe45 | err: 0 | rd_addr1:  5 | rd_addr2:  9 | rd_data1: a632 | rd_data2: 0000 |
# Time:   945000 | rst: 1 | en: 1 | wr_addr: 26 | wr_data: fe2e | err: 0 | rd_addr1: 30 | rd_addr2: 15 | rd_data1: a23d | rd_data2: fa0b |
# Time:   955000 | rst: 1 | en: 0 | wr_addr: 26 | wr_data: fe2e | err: 0 | rd_addr1: 21 | rd_addr2: 21 | rd_data1: xxxx | rd_data2: xxxx |
# Time:   965000 | rst: 1 | en: 1 | wr_addr:  8 | wr_data: aef2 | err: 1 | rd_addr1:  1 | rd_addr2: 11 | rd_data1: 5030 | rd_data2: 108b |
# Time:   975000 | rst: 1 | en: 0 | wr_addr:  8 | wr_data: aef2 | err: 0 | rd_addr1: 12 | rd_addr2: 26 | rd_data1: 0000 | rd_data2: fe2e |
# Time:   985000 | rst: 1 | en: 0 | wr_addr:  8 | wr_data: aef2 | err: 0 | rd_addr1: 19 | rd_addr2:  2 | rd_data1: 23a8 | rd_data2: 0000 |
# Time:   995000 | rst: 1 | en: 0 | wr_addr:  8 | wr_data: aef2 | err: 0 | rd_addr1:  0 | rd_addr2: 17 | rd_data1: 0000 | rd_data2: b8a1 |
# Time:  1005000 | rst: 1 | en: 1 | wr_addr:  2 | wr_data: 56df | err: 0 | rd_addr1: 24 | rd_addr2: 12 | rd_data1: 621a | rd_data2: 0000 |
# Time:  1015000 | rst: 1 | en: 1 | wr_addr: 31 | wr_data: 0220 | err: 0 | rd_addr1:  5 | rd_addr2: 24 | rd_data1: a632 | rd_data2: 621a |
# Time:  1025000 | rst: 1 | en: 1 | wr_addr:  8 | wr_data: 3007 | err: 0 | rd_addr1: 29 | rd_addr2: 21 | rd_data1: 3dfb | rd_data2: 0000 |
# Time:  1035000 | rst: 1 | en: 1 | wr_addr:  4 | wr_data: 2b0d | err: 0 | rd_addr1:  0 | rd_addr2: 19 | rd_data1: 0000 | rd_data2: 23a8 |
# Time:  1045000 | rst: 1 | en: 1 | wr_addr: 29 | wr_data: cd62 | err: 0 | rd_addr1: 24 | rd_addr2: 31 | rd_data1: 621a | rd_data2: 0220 |
# Time:  1055000 | rst: 1 | en: 1 | wr_addr: 25 | wr_data: 2371 | err: 0 | rd_addr1: 26 | rd_addr2: 15 | rd_data1: fe2e | rd_data2: fa0b |
# Time:  1065000 | rst: 1 | en: 0 | wr_addr: 25 | wr_data: 2371 | err: 0 | rd_addr1:  3 | rd_addr2: 10 | rd_data1: c802 | rd_data2: 58d0 |
# Time:  1075000 | rst: 1 | en: 0 | wr_addr: 25 | wr_data: 2371 | err: 0 | rd_addr1: 13 | rd_addr2: 16 | rd_data1: 0000 | rd_data2: 0000 |
# Time:  1085000 | rst: 1 | en: 1 | wr_addr: 29 | wr_data: 51ad | err: 0 | rd_addr1:  3 | rd_addr2: 15 | rd_data1: c802 | rd_data2: fa0b |
# Time:  1095000 | rst: 1 | en: 0 | wr_addr: 29 | wr_data: 51ad | err: 0 | rd_addr1: 23 | rd_addr2:  6 | rd_data1: be65 | rd_data2: 0000 |
# Time:  1105000 | rst: 1 | en: 1 | wr_addr: 11 | wr_data: 2434 | err: 0 | rd_addr1:  2 | rd_addr2: 10 | rd_data1: 56df | rd_data2: 58d0 |
# Time:  1115000 | rst: 1 | en: 0 | wr_addr: 11 | wr_data: 2434 | err: 0 | rd_addr1: 13 | rd_addr2: 31 | rd_data1: 0000 | rd_data2: 0220 |
# Time:  1125000 | rst: 1 | en: 0 | wr_addr: 11 | wr_data: 2434 | err: 0 | rd_addr1: 15 | rd_addr2: 10 | rd_data1: fa0b | rd_data2: 58d0 |
# Time:  1135000 | rst: 1 | en: 1 | wr_addr: 12 | wr_data: db70 | err: 0 | rd_addr1: 28 | rd_addr2: 15 | rd_data1: 15f3 | rd_data2: fa0b |
# Time:  1145000 | rst: 1 | en: 1 | wr_addr: 27 | wr_data: 3295 | err: 0 | rd_addr1: 22 | rd_addr2: 22 | rd_data1: xxxx | rd_data2: xxxx |
# Time:  1155000 | rst: 1 | en: 1 | wr_addr: 14 | wr_data: 5bf1 | err: 1 | rd_addr1: 20 | rd_addr2: 25 | rd_data1: 7eca | rd_data2: 2371 |
# Time:  1165000 | rst: 1 | en: 0 | wr_addr: 14 | wr_data: 5bf1 | err: 0 | rd_addr1: 31 | rd_addr2:  0 | rd_data1: 0220 | rd_data2: 0000 |
# Time:  1175000 | rst: 1 | en: 1 | wr_addr: 20 | wr_data: 32d8 | err: 0 | rd_addr1: 31 | rd_addr2:  9 | rd_data1: 0220 | rd_data2: 0000 |
# Time:  1185000 | rst: 1 | en: 0 | wr_addr: 20 | wr_data: 32d8 | err: 0 | rd_addr1: 28 | rd_addr2: 11 | rd_data1: 15f3 | rd_data2: 2434 |
# Time:  1195000 | rst: 1 | en: 0 | wr_addr: 20 | wr_data: 32d8 | err: 0 | rd_addr1: 20 | rd_addr2:  2 | rd_data1: 32d8 | rd_data2: 56df |
# Time:  1205000 | rst: 1 | en: 1 | wr_addr: 12 | wr_data: 282f | err: 0 | rd_addr1: 17 | rd_addr2: 23 | rd_data1: b8a1 | rd_data2: be65 |
# Time:  1215000 | rst: 1 | en: 1 | wr_addr: 24 | wr_data: 34e5 | err: 0 | rd_addr1: 28 | rd_addr2: 16 | rd_data1: 15f3 | rd_data2: 0000 |
# Time:  1225000 | rst: 1 | en: 1 | wr_addr:  5 | wr_data: fa42 | err: 0 | rd_addr1:  4 | rd_addr2: 17 | rd_data1: 2b0d | rd_data2: b8a1 |
# Time:  1235000 | rst: 1 | en: 1 | wr_addr: 15 | wr_data: a7b3 | err: 0 | rd_addr1: 16 | rd_addr2:  4 | rd_data1: 0000 | rd_data2: 2b0d |
# Time:  1245000 | rst: 1 | en: 1 | wr_addr: 24 | wr_data: 8baf | err: 0 | rd_addr1:  8 | rd_addr2: 31 | rd_data1: 3007 | rd_data2: 0220 |
# Time:  1255000 | rst: 1 | en: 0 | wr_addr: 24 | wr_data: 8baf | err: 0 | rd_addr1:  9 | rd_addr2:  2 | rd_data1: 0000 | rd_data2: 56df |
# Time:  1265000 | rst: 1 | en: 0 | wr_addr: 24 | wr_data: 8baf | err: 0 | rd_addr1:  0 | rd_addr2:  5 | rd_data1: 0000 | rd_data2: fa42 |
# Time:  1275000 | rst: 1 | en: 1 | wr_addr: 19 | wr_data: 6f29 | err: 0 | rd_addr1: 12 | rd_addr2: 14 | rd_data1: 282f | rd_data2: 5bf1 |
# Time:  1285000 | rst: 1 | en: 0 | wr_addr: 19 | wr_data: 6f29 | err: 0 | rd_addr1: 21 | rd_addr2:  0 | rd_data1: 0000 | rd_data2: 0000 |
# Time:  1295000 | rst: 1 | en: 0 | wr_addr: 19 | wr_data: 6f29 | err: 0 | rd_addr1:  3 | rd_addr2: 20 | rd_data1: c802 | rd_data2: 32d8 |
# Time:  1305000 | rst: 1 | en: 0 | wr_addr: 19 | wr_data: 6f29 | err: 0 | rd_addr1: 14 | rd_addr2: 26 | rd_data1: 5bf1 | rd_data2: fe2e |
# Time:  1315000 | rst: 1 | en: 1 | wr_addr:  7 | wr_data: c084 | err: 0 | rd_addr1: 27 | rd_addr2: 23 | rd_data1: 2cab | rd_data2: be65 |
# Time:  1325000 | rst: 1 | en: 0 | wr_addr:  7 | wr_data: c084 | err: 0 | rd_addr1:  8 | rd_addr2: 23 | rd_data1: 3007 | rd_data2: be65 |
# Time:  1335000 | rst: 1 | en: 1 | wr_addr: 25 | wr_data: 8cfd | err: 0 | rd_addr1:  6 | rd_addr2: 23 | rd_data1: 0000 | rd_data2: be65 |
# Time:  1345000 | rst: 1 | en: 1 | wr_addr:  2 | wr_data: 24bd | err: 0 | rd_addr1: 26 | rd_addr2: 22 | rd_data1: fe2e | rd_data2: fe45 |
# Time:  1355000 | rst: 1 | en: 0 | wr_addr:  2 | wr_data: 24bd | err: 0 | rd_addr1: 10 | rd_addr2:  8 | rd_data1: 58d0 | rd_data2: 3007 |
# Time:  1365000 | rst: 1 | en: 1 | wr_addr: 31 | wr_data: f7aa | err: 0 | rd_addr1: 27 | rd_addr2: 31 | rd_data1: xxxx | rd_data2: xxxx |
# Time:  1375000 | rst: 1 | en: 0 | wr_addr: 31 | wr_data: f7aa | err: 1 | rd_addr1: 23 | rd_addr2:  0 | rd_data1: be65 | rd_data2: 0000 |
# Time:  1385000 | rst: 1 | en: 1 | wr_addr:  2 | wr_data: 85aa | err: 0 | rd_addr1: 16 | rd_addr2: 16 | rd_data1: xxxx | rd_data2: xxxx |
# Time:  1395000 | rst: 1 | en: 1 | wr_addr: 15 | wr_data: 55f9 | err: 1 | rd_addr1:  5 | rd_addr2: 17 | rd_data1: fa42 | rd_data2: b8a1 |
# Time:  1405000 | rst: 1 | en: 1 | wr_addr:  0 | wr_data: fc2f | err: 0 | rd_addr1: 10 | rd_addr2: 19 | rd_data1: 58d0 | rd_data2: 6f29 |
# Time:  1415000 | rst: 1 | en: 1 | wr_addr: 31 | wr_data: 7847 | err: 0 | rd_addr1: 11 | rd_addr2: 22 | rd_data1: 2434 | rd_data2: fe45 |
# Time:  1425000 | rst: 1 | en: 1 | wr_addr:  5 | wr_data: 565e | err: 0 | rd_addr1: 23 | rd_addr2: 15 | rd_data1: be65 | rd_data2: 55f9 |
# Time:  1435000 | rst: 1 | en: 1 | wr_addr:  1 | wr_data: 07a4 | err: 0 | rd_addr1:  8 | rd_addr2: 31 | rd_data1: 3007 | rd_data2: 7847 |
# Time:  1445000 | rst: 1 | en: 0 | wr_addr:  1 | wr_data: 07a4 | err: 0 | rd_addr1:  7 | rd_addr2: 14 | rd_data1: c084 | rd_data2: 5bf1 |
# Time:  1455000 | rst: 1 | en: 1 | wr_addr: 20 | wr_data: 1b22 | err: 0 | rd_addr1: 23 | rd_addr2: 26 | rd_data1: be65 | rd_data2: fe2e |
# Time:  1465000 | rst: 1 | en: 0 | wr_addr: 20 | wr_data: 1b22 | err: 0 | rd_addr1:  8 | rd_addr2: 31 | rd_data1: 3007 | rd_data2: 7847 |
# Time:  1475000 | rst: 1 | en: 1 | wr_addr: 16 | wr_data: 359e | err: 0 | rd_addr1:  4 | rd_addr2: 27 | rd_data1: 2b0d | rd_data2: 2cab |
# Time:  1485000 | rst: 1 | en: 0 | wr_addr: 16 | wr_data: 359e | err: 0 | rd_addr1:  4 | rd_addr2: 31 | rd_data1: 2b0d | rd_data2: 7847 |
# Time:  1495000 | rst: 1 | en: 1 | wr_addr: 17 | wr_data: ed7c | err: 0 | rd_addr1:  6 | rd_addr2: 28 | rd_data1: 0000 | rd_data2: 15f3 |
