lab_3/transcript
# do run.do 0
# 0
# regfile_v0
# QuestaSim vlog 2025.1_1 Compiler 2025.02 Feb 13 2025
# Start time: 17:32:37 on Mar 29,2026
# vlog "+acc" "+define+DUT_NAME=regfile_v0" tb_regfile.sv 
# -- Compiling package constants
# -- Compiling package tb_regfile_sv_unit
# -- Importing package constants
# -- Compiling interface regfile_if
# -- Compiling module tb_regfile
# 
# Top level modules:
# 	tb_regfile
# End time: 17:32:37 on Mar 29,2026, Elapsed time: 0:00:00
# Errors: 0, Warnings: 0
# vsim work.tb_regfile 
# Start time: 17:32:37 on Mar 29,2026
# ** Note: (vsim-3813) Design is being optimized due to module recompilation...
# ** Warning: (vopt-10587) Some optimizations are turned off because the +acc switch is in effect. This will cause your simulation to run slowly. Please use -access/-debug to maintain needed visibility. The +acc switch would be deprecated in a future release.
# ** Note: (vsim-12126) Error and warning message counts have been restored: Errors=0, Warnings=1.
# //  Questa Sim
# //  Version 2025.1_1 linux Feb 13 2025
# //
# // Unpublished work. Copyright 2025 Siemens
# //
# // This material contains trade secrets or otherwise confidential information
# // owned by Siemens Industry Software Inc. or its affiliates (collectively,
# // "SISW"), or its licensors. Access to and use of this information is strictly
# // limited as set forth in the Customer's applicable agreements with SISW.
# //
# // This material may not be copied, distributed, or otherwise disclosed outside
# // of the Customer's facilities without the express written permission of SISW,
# // and may not be used in any way not expressly authorized by SISW.
# //
# Loading sv_std.std
# Loading work.constants(fast)
# Loading work.tb_regfile_sv_unit(fast)
# Loading work.tb_regfile(fast)
# Loading work.regfile_if(fast__2)
# Loading work.regfile_v0(fast)
# Loading work.regfile_if(fast)
# ** Note: (vsim-12125) Error and warning message counts have been reset to '0' because of 'restart'.
# ** Note: (vsim-8009) Loading existing optimized design _opt12
# ** Note: (vsim-12126) Error and warning message counts have been restored: Errors=0, Warnings=1.
# Loading work.constants(fast)
# Loading work.tb_regfile_sv_unit(fast)
# Loading work.tb_regfile(fast)
# Loading work.regfile_if(fast__2)
# Loading work.regfile_v0(fast)
# Loading work.regfile_if(fast)
# Time:    15000 | rst: 1 | en: 1 | wr_addr:  0 | wr_data: 1000 | err: 0 | rd_addr1:  0 | rd_addr2:  0 | rd_data1: xxxx | rd_data2: xxxx |
# Time:    25000 | rst: 1 | en: 0 | wr_addr:  0 | wr_data: 1000 | err: 1 | rd_addr1:  0 | rd_addr2:  0 | rd_data1: xxxx | rd_data2: xxxx |
# Time:    35000 | rst: 1 | en: 1 | wr_addr:  1 | wr_data: 1001 | err: 1 | rd_addr1:  0 | rd_addr2:  0 | rd_data1: xxxx | rd_data2: xxxx |
# Time:    45000 | rst: 1 | en: 0 | wr_addr:  1 | wr_data: 1001 | err: 1 | rd_addr1:  1 | rd_addr2:  1 | rd_data1: xxxx | rd_data2: xxxx |
# Time:    55000 | rst: 1 | en: 1 | wr_addr:  2 | wr_data: 1002 | err: 1 | rd_addr1:  1 | rd_addr2:  1 | rd_data1: xxxx | rd_data2: xxxx |
# Time:    65000 | rst: 1 | en: 0 | wr_addr:  2 | wr_data: 1002 | err: 1 | rd_addr1:  2 | rd_addr2:  2 | rd_data1: xxxx | rd_data2: xxxx |
# Time:    75000 | rst: 1 | en: 1 | wr_addr:  3 | wr_data: 1003 | err: 1 | rd_addr1:  2 | rd_addr2:  2 | rd_data1: xxxx | rd_data2: xxxx |
# Time:    85000 | rst: 1 | en: 0 | wr_addr:  3 | wr_data: 1003 | err: 1 | rd_addr1:  3 | rd_addr2:  3 | rd_data1: xxxx | rd_data2: xxxx |
# Time:    95000 | rst: 1 | en: 1 | wr_addr:  4 | wr_data: 1004 | err: 1 | rd_addr1:  3 | rd_addr2:  3 | rd_data1: xxxx | rd_data2: xxxx |
# Time:   105000 | rst: 1 | en: 0 | wr_addr:  4 | wr_data: 1004 | err: 1 | rd_addr1:  4 | rd_addr2:  4 | rd_data1: xxxx | rd_data2: xxxx |
# Time:   115000 | rst: 1 | en: 1 | wr_addr:  5 | wr_data: 1005 | err: 1 | rd_addr1:  4 | rd_addr2:  4 | rd_data1: xxxx | rd_data2: xxxx |
# Time:   125000 | rst: 1 | en: 0 | wr_addr:  5 | wr_data: 1005 | err: 1 | rd_addr1:  5 | rd_addr2:  5 | rd_data1: xxxx | rd_data2: xxxx |
# Time:   135000 | rst: 1 | en: 1 | wr_addr:  6 | wr_data: 1006 | err: 1 | rd_addr1:  5 | rd_addr2:  5 | rd_data1: xxxx | rd_data2: xxxx |
# Time:   145000 | rst: 1 | en: 0 | wr_addr:  6 | wr_data: 1006 | err: 1 | rd_addr1:  6 | rd_addr2:  6 | rd_data1: xxxx | rd_data2: xxxx |
# Time:   155000 | rst: 1 | en: 1 | wr_addr:  7 | wr_data: 1007 | err: 1 | rd_addr1:  6 | rd_addr2:  6 | rd_data1: xxxx | rd_data2: xxxx |
# Time:   165000 | rst: 1 | en: 0 | wr_addr:  7 | wr_data: 1007 | err: 1 | rd_addr1:  7 | rd_addr2:  7 | rd_data1: xxxx | rd_data2: xxxx |
# Time:   175000 | rst: 1 | en: 1 | wr_addr:  8 | wr_data: 1008 | err: 1 | rd_addr1:  7 | rd_addr2:  7 | rd_data1: xxxx | rd_data2: xxxx |
# Time:   185000 | rst: 1 | en: 0 | wr_addr:  8 | wr_data: 1008 | err: 1 | rd_addr1:  8 | rd_addr2:  8 | rd_data1: xxxx | rd_data2: xxxx |
# Time:   195000 | rst: 1 | en: 1 | wr_addr:  9 | wr_data: 1009 | err: 1 | rd_addr1:  8 | rd_addr2:  8 | rd_data1: xxxx | rd_data2: xxxx |
# Time:   205000 | rst: 0 | en: 0 | wr_addr:  9 | wr_data: 1009 | err: 1 | rd_addr1:  9 | rd_addr2:  9 | rd_data1: xxxx | rd_data2: xxxx |
# Time:   215000 | rst: 0 | en: 0 | wr_addr:  9 | wr_data: 1009 | err: 1 | rd_addr1:  9 | rd_addr2:  9 | rd_data1: xxxx | rd_data2: xxxx |
# ** Error: T_000 | Reset failed: rd_data1[0] = x != 0
#    Time: 225 ns  Scope: tb_regfile.T_000 File: tb_regfile.sv Line: 357
# Time:   225000 | rst: 1 | en: 0 | wr_addr:  9 | wr_data: 1009 | err: 0 | rd_addr1:  0 | rd_addr2:  0 | rd_data1: xxxx | rd_data2: xxxx |
# Time:   235000 | rst: 1 | en: 0 | wr_addr:  9 | wr_data: 1009 | err: 1 | rd_addr1:  1 | rd_addr2:  1 | rd_data1: xxxx | rd_data2: xxxx |
# ** Error: T_000 | Reset failed: rd_data1[1] = x != 0
#    Time: 235 ns  Scope: tb_regfile.T_000 File: tb_regfile.sv Line: 357
# ** Error: T_000 | Reset failed: rd_data1[2] = x != 0
#    Time: 245 ns  Scope: tb_regfile.T_000 File: tb_regfile.sv Line: 357
# Time:   245000 | rst: 1 | en: 0 | wr_addr:  9 | wr_data: 1009 | err: 1 | rd_addr1:  2 | rd_addr2:  2 | rd_data1: xxxx | rd_data2: xxxx |
# Time:   255000 | rst: 1 | en: 0 | wr_addr:  9 | wr_data: 1009 | err: 1 | rd_addr1:  3 | rd_addr2:  3 | rd_data1: xxxx | rd_data2: xxxx |
# ** Error: T_000 | Reset failed: rd_data1[3] = x != 0
#    Time: 255 ns  Scope: tb_regfile.T_000 File: tb_regfile.sv Line: 357
# ** Error: T_000 | Reset failed: rd_data1[4] = x != 0
#    Time: 265 ns  Scope: tb_regfile.T_000 File: tb_regfile.sv Line: 357
# Time:   265000 | rst: 1 | en: 0 | wr_addr:  9 | wr_data: 1009 | err: 1 | rd_addr1:  4 | rd_addr2:  4 | rd_data1: xxxx | rd_data2: xxxx |
# Time:   275000 | rst: 1 | en: 0 | wr_addr:  9 | wr_data: 1009 | err: 1 | rd_addr1:  5 | rd_addr2:  5 | rd_data1: xxxx | rd_data2: xxxx |
# ** Error: T_000 | Reset failed: rd_data1[5] = x != 0
#    Time: 275 ns  Scope: tb_regfile.T_000 File: tb_regfile.sv Line: 357
# ** Error: T_000 | Reset failed: rd_data1[6] = x != 0
#    Time: 285 ns  Scope: tb_regfile.T_000 File: tb_regfile.sv Line: 357
# Time:   285000 | rst: 1 | en: 0 | wr_addr:  9 | wr_data: 1009 | err: 1 | rd_addr1:  6 | rd_addr2:  6 | rd_data1: xxxx | rd_data2: xxxx |
# Time:   295000 | rst: 1 | en: 0 | wr_addr:  9 | wr_data: 1009 | err: 1 | rd_addr1:  7 | rd_addr2:  7 | rd_data1: xxxx | rd_data2: xxxx |
# ** Error: T_000 | Reset failed: rd_data1[7] = x != 0
#    Time: 295 ns  Scope: tb_regfile.T_000 File: tb_regfile.sv Line: 357
# ** Error: T_000 | Reset failed: rd_data1[8] = x != 0
#    Time: 305 ns  Scope: tb_regfile.T_000 File: tb_regfile.sv Line: 357
# Time:   305000 | rst: 1 | en: 0 | wr_addr:  9 | wr_data: 1009 | err: 1 | rd_addr1:  8 | rd_addr2:  8 | rd_data1: xxxx | rd_data2: xxxx |
# Time:   315000 | rst: 1 | en: 0 | wr_addr:  9 | wr_data: 1009 | err: 1 | rd_addr1:  9 | rd_addr2:  9 | rd_data1: xxxx | rd_data2: xxxx |
# ** Error: T_000 | Reset failed: rd_data1[9] = x != 0
#    Time: 315 ns  Scope: tb_regfile.T_000 File: tb_regfile.sv Line: 357
# ** Error: T_001 | Reset failed: err = 1 != 0
#    Time: 325 ns  Scope: tb_regfile.T_001 File: tb_regfile.sv Line: 374
# Time:   325000 | rst: 1 | en: 0 | wr_addr:  9 | wr_data: 1009 | err: 1 | rd_addr1:  1 | rd_addr2:  1 | rd_data1: xxxx | rd_data2: xxxx |
# Time:   335000 | rst: 1 | en: 1 | wr_addr:  2 | wr_data: c1a0 | err: 0 | rd_addr1:  1 | rd_addr2:  1 | rd_data1: xxxx | rd_data2: xxxx |
# Time:   345000 | rst: 1 | en: 1 | wr_addr:  3 | wr_data: c1a1 | err: 1 | rd_addr1:  1 | rd_addr2:  1 | rd_data1: xxxx | rd_data2: xxxx |
# Time:   355000 | rst: 1 | en: 0 | wr_addr:  3 | wr_data: c1a1 | err: 1 | rd_addr1:  2 | rd_addr2:  3 | rd_data1: 0000 | rd_data2: 0000 |
# ** Error: T_002 | Write -> Read failed: rd_data1 = 0 != c1a0 | rd_data2 = 0 != c1a1
#    Time: 355 ns  Scope: tb_regfile.T_002 File: tb_regfile.sv Line: 389
# ** Error: T_003 | Illegal Read + Read failed: err = 0 != 1
#    Time: 365 ns  Scope: tb_regfile.T_003 File: tb_regfile.sv Line: 402
# Time:   365000 | rst: 1 | en: 0 | wr_addr:  3 | wr_data: c1a1 | err: 0 | rd_addr1:  4 | rd_addr2:  4 | rd_data1: xxxx | rd_data2: xxxx |
# Time:   375000 | rst: 1 | en: 1 | wr_addr:  4 | wr_data: aaaa | err: 1 | rd_addr1:  4 | rd_addr2:  5 | rd_data1: xxxx | rd_data2: xxxx |
# Time:   385000 | rst: 1 | en: 1 | wr_addr:  5 | wr_data: aaaa | err: 1 | rd_addr1:  5 | rd_addr2:  5 | rd_data1: xxxx | rd_data2: xxxx |
# Time:   395000 | rst: 1 | en: 0 | wr_addr:  5 | wr_data: aaaa | err: 1 | rd_addr1: 26 | rd_addr2: 25 | rd_data1: 0000 | rd_data2: 0000 |
# Time:   405000 | rst: 1 | en: 0 | wr_addr:  5 | wr_data: aaaa | err: 0 | rd_addr1: 26 | rd_addr2: 25 | rd_data1: 0000 | rd_data2: 0000 |
# Time:   415000 | rst: 1 | en: 0 | wr_addr:  5 | wr_data: aaaa | err: 0 | rd_addr1: 20 | rd_addr2:  6 | rd_data1: 0000 | rd_data2: 0000 |
# Time:   425000 | rst: 1 | en: 0 | wr_addr:  5 | wr_data: aaaa | err: 0 | rd_addr1: 20 | rd_addr2:  6 | rd_data1: 0000 | rd_data2: 0000 |
# Time:   435000 | rst: 1 | en: 0 | wr_addr:  5 | wr_data: aaaa | err: 0 | rd_addr1: 31 | rd_addr2:  4 | rd_data1: 0000 | rd_data2: 0000 |
# Time:   445000 | rst: 1 | en: 1 | wr_addr: 31 | wr_data: 3a62 | err: 0 | rd_addr1: 31 | rd_addr2:  4 | rd_data1: xxxx | rd_data2: xxxx |
# Time:   455000 | rst: 1 | en: 0 | wr_addr: 31 | wr_data: 3a62 | err: 1 | rd_addr1: 31 | rd_addr2:  5 | rd_data1: 0000 | rd_data2: 0000 |
# ** Error: Read 2 failed: aaaa != 0
#    Time: 455 ns  Scope: tb_regfile_sv_unit.regfile_scoreboard.check_legal_rd File: tb_regfile.sv Line: 259
# Time:   465000 | rst: 1 | en: 0 | wr_addr: 31 | wr_data: 3a62 | err: 0 | rd_addr1: 31 | rd_addr2:  5 | rd_data1: 0000 | rd_data2: 0000 |
# ** Error: Read 1 failed: 3a62 != 0
#    Time: 465 ns  Scope: tb_regfile_sv_unit.regfile_scoreboard.check_legal_rd File: tb_regfile.sv Line: 249
# ** Error: Read 2 failed: aaaa != 0
#    Time: 465 ns  Scope: tb_regfile_sv_unit.regfile_scoreboard.check_legal_rd File: tb_regfile.sv Line: 259
# Time:   475000 | rst: 1 | en: 0 | wr_addr: 31 | wr_data: 3a62 | err: 0 | rd_addr1: 13 | rd_addr2:  7 | rd_data1: 0000 | rd_data2: 0000 |
# Time:   485000 | rst: 1 | en: 1 | wr_addr: 25 | wr_data: 80e4 | err: 0 | rd_addr1: 13 | rd_addr2:  7 | rd_data1: 0000 | rd_data2: 0000 |
# Time:   495000 | rst: 1 | en: 0 | wr_addr: 25 | wr_data: 80e4 | err: 0 | rd_addr1: 23 | rd_addr2: 27 | rd_data1: 0000 | rd_data2: 0000 |
# Time:   505000 | rst: 1 | en: 1 | wr_addr: 31 | wr_data: 2520 | err: 0 | rd_addr1: 23 | rd_addr2: 27 | rd_data1: 0000 | rd_data2: 0000 |
# Time:   515000 | rst: 1 | en: 0 | wr_addr: 31 | wr_data: 2520 | err: 0 | rd_addr1: 18 | rd_addr2: 13 | rd_data1: 0000 | rd_data2: 0000 |
# Time:   525000 | rst: 1 | en: 0 | wr_addr: 31 | wr_data: 2520 | err: 0 | rd_addr1: 18 | rd_addr2: 13 | rd_data1: 0000 | rd_data2: 0000 |
# Time:   535000 | rst: 1 | en: 0 | wr_addr: 31 | wr_data: 2520 | err: 0 | rd_addr1: 12 | rd_addr2: 23 | rd_data1: 0000 | rd_data2: 0000 |
# Time:   545000 | rst: 1 | en: 1 | wr_addr: 29 | wr_data: e95c | err: 0 | rd_addr1: 12 | rd_addr2: 23 | rd_data1: 0000 | rd_data2: 0000 |
# Time:   555000 | rst: 1 | en: 0 | wr_addr: 29 | wr_data: e95c | err: 0 | rd_addr1: 14 | rd_addr2: 30 | rd_data1: 0000 | rd_data2: 0000 |
# Time:   565000 | rst: 1 | en: 1 | wr_addr: 24 | wr_data: 621a | err: 0 | rd_addr1: 14 | rd_addr2: 30 | rd_data1: 0000 | rd_data2: 0000 |
# Time:   575000 | rst: 1 | en: 0 | wr_addr: 24 | wr_data: 621a | err: 0 | rd_addr1: 13 | rd_addr2: 31 | rd_data1: 0000 | rd_data2: 2520 |
# Time:   585000 | rst: 1 | en: 0 | wr_addr: 24 | wr_data: 621a | err: 0 | rd_addr1: 13 | rd_addr2: 31 | rd_data1: 0000 | rd_data2: 2520 |
# *********************************
# * Directed tests:              *
# *********************************
# * success / errors:    2 /   13 *
# *********************************
# * T_000:        0 /   10 *
# * T_001:        0 /    1 *
# * T_002:        0 /    1 *
# * T_003:        0 /    1 *
# * T_004:        1 /    0 *
# * T_005:        1 /    0 *
# *********************************
# *********************************
# * Randomized tests:            *
# *********************************
# * success / errors:   75 /    3 *
# *********************************
# * illegal read:       38 /    0 *
# * legal read 1:       19 /    1 *
# * legal read 2:       18 /    2 *
# *********************************
# *********************************
# ** Note: $finish    : tb_regfile.sv(507)
#    Time: 595 ns  Iteration: 1  Instance: /tb_regfile
# End time: 17:32:39 on Mar 29,2026, Elapsed time: 0:00:02
# Errors: 16, Warnings: 1
