lab_2/data/alu_waves_v5.vcd
$date
	Thu Mar 19 23:24:26 2026
$end
$version
	Questa Intel FPGA Edition Version 2024.3
$end
$timescale
	1ps
$end

$scope module alu_4bit_tb $end
$var parameter 32 ! I_SIZE $end
$var parameter 32 " O_SIZE $end
$var integer 32 # err_count $end
$var reg 4 $ A [3:0] $end
$var reg 4 % B [3:0] $end
$var reg 4 & Y [3:0] $end
$var reg 3 ' op [2:0] $end
$var reg 1 ( carry $end

$scope task assert_w $end
$var reg 3 ) operand [2:0] $end
$var integer 32 * a $end
$var integer 32 + b $end
$var reg 4 , expected_Y [3:0] $end
$var reg 1 - expected_carry $end
$upscope $end

$scope task test_op $end
$var reg 3 . operand [2:0] $end
$upscope $end

$scope module dut $end
$upscope $end
$upscope $end
$enddefinitions $end
#0
$dumpvars
bx $
bx %
bx &
bx '
x(
bx )
bx ,
x-
bx .
b100 !
b11 "
b0 #
b0 *
b0 +
$end
#10000
b0 .
b0 '
b0 $
b0 %
0(
b1 &
#11000
b0 )
b0 ,
0-
b1 #
b1 %
b10 &
#12000
b1 +
b1 ,
b10 #
b10 %
b11 &
#13000
b10 +
b10 ,
b11 #
b11 %
b100 &
#14000
b11 +
b11 ,
b100 #
b100 %
b101 &
#15000
b100 +
b100 ,
b101 #
b101 %
b110 &
#16000
b101 +
b101 ,
b110 #
b110 %
b111 &
#17000
b110 +
b110 ,
b111 #
b111 %
b1000 &
#18000
b111 +
b111 ,
b1000 #
b1000 %
b1001 &
#19000
b1000 +
b1000 ,
b1001 #
b1001 %
b1010 &
#20000
b1001 +
b1001 ,
b1010 #
b1010 %
b1011 &
#21000
b1010 +
b1010 ,
b1011 #
b1011 %
b1100 &
#22000
b1011 +
b1011 ,
b1100 #
b1100 %
b1101 &
#23000
b1100 +
b1100 ,
b1101 #
b1101 %
b1110 &
#24000
b1101 +
b1101 ,
b1110 #
b1110 %
b1111 &
#25000
b1110 +
b1110 ,
b1111 #
b1111 %
1(
b0 &
#26000
b1111 +
b1111 ,
b10000 #
b1 $
b0 %
0(
b10 &
#27000
b1 *
b0 +
b1 ,
b10001 #
b1 %
b11 &
#28000
b1 +
b10 ,
b10010 #
b10 %
b100 &
#29000
b10 +
b11 ,
b10011 #
b11 %
b101 &
#30000
b11 +
b100 ,
b10100 #
b100 %
b110 &
#31000
b100 +
b101 ,
b10101 #
b101 %
b111 &
#32000
b101 +
b110 ,
b10110 #
b110 %
b1000 &
#33000
b110 +
b111 ,
b10111 #
b111 %
b1001 &
#34000
b111 +
b1000 ,
b11000 #
b1000 %
b1010 &
#35000
b1000 +
b1001 ,
b11001 #
b1001 %
b1011 &
#36000
b1001 +
b1010 ,
b11010 #
b1010 %
b1100 &
#37000
b1010 +
b1011 ,
b11011 #
b1011 %
b1101 &
#38000
b1011 +
b1100 ,
b11100 #
b1100 %
b1110 &
#39000
b1100 +
b1101 ,
b11101 #
b1101 %
b1111 &
#40000
b1101 +
b1110 ,
b11110 #
b1110 %
1(
b0 &
#41000
b1110 +
b1111 ,
b11111 #
b1111 %
b1 &
#42000
b1111 +
b0 ,
1-
b100000 #
b10 $
b0 %
0(
b11 &
#43000
b10 *
b0 +
b10 ,
0-
b100001 #
b1 %
b100 &
#44000
b1 +
b11 ,
b100010 #
b10 %
b101 &
#45000
b10 +
b100 ,
b100011 #
b11 %
b110 &
#46000
b11 +
b101 ,
b100100 #
b100 %
b111 &
#47000
b100 +
b110 ,
b100101 #
b101 %
b1000 &
#48000
b101 +
b111 ,
b100110 #
b110 %
b1001 &
#49000
b110 +
b1000 ,
b100111 #
b111 %
b1010 &
#50000
b111 +
b1001 ,
b101000 #
b1000 %
b1011 &
#51000
b1000 +
b1010 ,
b101001 #
b1001 %
b1100 &
#52000
b1001 +
b1011 ,
b101010 #
b1010 %
b1101 &
#53000
b1010 +
b1100 ,
b101011 #
b1011 %
b1110 &
#54000
b1011 +
b1101 ,
b101100 #
b1100 %
b1111 &
#55000
b1100 +
b1110 ,
b101101 #
b1101 %
1(
b0 &
#56000
b1101 +
b1111 ,
b101110 #
b1110 %
b1 &
#57000
b1110 +
b0 ,
1-
b101111 #
b1111 %
b10 &
#58000
b1111 +
b1 ,
b110000 #
b11 $
b0 %
0(
b100 &
#59000
b11 *
b0 +
b11 ,
0-
b110001 #
b1 %
b101 &
#60000
b1 +
b100 ,
b110010 #
b10 %
b110 &
#61000
b10 +
b101 ,
b110011 #
b11 %
b111 &
#62000
b11 +
b110 ,
b110100 #
b100 %
b1000 &
#63000
b100 +
b111 ,
b110101 #
b101 %
b1001 &
#64000
b101 +
b1000 ,
b110110 #
b110 %
b1010 &
#65000
b110 +
b1001 ,
b110111 #
b111 %
b1011 &
#66000
b111 +
b1010 ,
b111000 #
b1000 %
b1100 &
#67000
b1000 +
b1011 ,
b111001 #
b1001 %
b1101 &
#68000
b1001 +
b1100 ,
b111010 #
b1010 %
b1110 &
#69000
b1010 +
b1101 ,
b111011 #
b1011 %
b1111 &
#70000
b1011 +
b1110 ,
b111100 #
b1100 %
1(
b0 &
#71000
b1100 +
b1111 ,
b111101 #
b1101 %
b1 &
#72000
b1101 +
b0 ,
1-
b111110 #
b1110 %
b10 &
#73000
b1110 +
b1 ,
b111111 #
b1111 %
b11 &
#74000
b1111 +
b10 ,
b1000000 #
b100 $
b0 %
0(
b101 &
#75000
b100 *
b0 +
b100 ,
0-
b1000001 #
b1 %
b110 &
#76000
b1 +
b101 ,
b1000010 #
b10 %
b111 &
#77000
b10 +
b110 ,
b1000011 #
b11 %
b1000 &
#78000
b11 +
b111 ,
b1000100 #
b100 %
b1001 &
#79000
b100 +
b1000 ,
b1000101 #
b101 %
b1010 &
#80000
b101 +
b1001 ,
b1000110 #
b110 %
b1011 &
#81000
b110 +
b1010 ,
b1000111 #
b111 %
b1100 &
#82000
b111 +
b1011 ,
b1001000 #
b1000 %
b1101 &
#83000
b1000 +
b1100 ,
b1001001 #
b1001 %
b1110 &
#84000
b1001 +
b1101 ,
b1001010 #
b1010 %
b1111 &
#85000
b1010 +
b1110 ,
b1001011 #
b1011 %
1(
b0 &
#86000
b1011 +
b1111 ,
b1001100 #
b1100 %
b1 &
#87000
b1100 +
b0 ,
1-
b1001101 #
b1101 %
b10 &
#88000
b1101 +
b1 ,
b1001110 #
b1110 %
b11 &
#89000
b1110 +
b10 ,
b1001111 #
b1111 %
b100 &
#90000
b1111 +
b11 ,
b1010000 #
b101 $
b0 %
0(
b110 &
#91000
b101 *
b0 +
b101 ,
0-
b1010001 #
b1 %
b111 &
#92000
b1 +
b110 ,
b1010010 #
b10 %
b1000 &
#93000
b10 +
b111 ,
b1010011 #
b11 %
b1001 &
#94000
b11 +
b1000 ,
b1010100 #
b100 %
b1010 &
#95000
b100 +
b1001 ,
b1010101 #
b101 %
b1011 &
#96000
b101 +
b1010 ,
b1010110 #
b110 %
b1100 &
#97000
b110 +
b1011 ,
b1010111 #
b111 %
b1101 &
#98000
b111 +
b1100 ,
b1011000 #
b1000 %
b1110 &
#99000
b1000 +
b1101 ,
b1011001 #
b1001 %
b1111 &
#100000
b1001 +
b1110 ,
b1011010 #
b1010 %
1(
b0 &
#101000
b1010 +
b1111 ,
b1011011 #
b1011 %
b1 &
#102000
b1011 +
b0 ,
1-
b1011100 #
b1100 %
b10 &
#103000
b1100 +
b1 ,
b1011101 #
b1101 %
b11 &
#104000
b1101 +
b10 ,
b1011110 #
b1110 %
b100 &
#105000
b1110 +
b11 ,
b1011111 #
b1111 %
b101 &
#106000
b1111 +
b100 ,
b1100000 #
b110 $
b0 %
0(
b111 &
#107000
b110 *
b0 +
b110 ,
0-
b1100001 #
b1 %
b1000 &
#108000
b1 +
b111 ,
b1100010 #
b10 %
b1001 &
#109000
b10 +
b1000 ,
b1100011 #
b11 %
b1010 &
#110000
b11 +
b1001 ,
b1100100 #
b100 %
b1011 &
#111000
b100 +
b1010 ,
b1100101 #
b101 %
b1100 &
#112000
b101 +
b1011 ,
b1100110 #
b110 %
b1101 &
#113000
b110 +
b1100 ,
b1100111 #
b111 %
b1110 &
#114000
b111 +
b1101 ,
b1101000 #
b1000 %
b1111 &
#115000
b1000 +
b1110 ,
b1101001 #
b1001 %
1(
b0 &
#116000
b1001 +
b1111 ,
b1101010 #
b1010 %
b1 &
#117000
b1010 +
b0 ,
1-
b1101011 #
b1011 %
b10 &
#118000
b1011 +
b1 ,
b1101100 #
b1100 %
b11 &
#119000
b1100 +
b10 ,
b1101101 #
b1101 %
b100 &
#120000
b1101 +
b11 ,
b1101110 #
b1110 %
b101 &
#121000
b1110 +
b100 ,
b1101111 #
b1111 %
b110 &
#122000
b1111 +
b101 ,
b1110000 #
b111 $
b0 %
0(
b1000 &
#123000
b111 *
b0 +
b111 ,
0-
b1110001 #
b1 %
b1001 &
#124000
b1 +
b1000 ,
b1110010 #
b10 %
b1010 &
#125000
b10 +
b1001 ,
b1110011 #
b11 %
b1011 &
#126000
b11 +
b1010 ,
b1110100 #
b100 %
b1100 &
#127000
b100 +
b1011 ,
b1110101 #
b101 %
b1101 &
#128000
b101 +
b1100 ,
b1110110 #
b110 %
b1110 &
#129000
b110 +
b1101 ,
b1110111 #
b111 %
b1111 &
#130000
b111 +
b1110 ,
b1111000 #
b1000 %
1(
b0 &
#131000
b1000 +
b1111 ,
b1111001 #
b1001 %
b1 &
#132000
b1001 +
b0 ,
1-
b1111010 #
b1010 %
b10 &
#133000
b1010 +
b1 ,
b1111011 #
b1011 %
b11 &
#134000
b1011 +
b10 ,
b1111100 #
b1100 %
b100 &
#135000
b1100 +
b11 ,
b1111101 #
b1101 %
b101 &
#136000
b1101 +
b100 ,
b1111110 #
b1110 %
b110 &
#137000
b1110 +
b101 ,
b1111111 #
b1111 %
b111 &
#138000
b1111 +
b110 ,
b10000000 #
b1000 $
b0 %
0(
b1001 &
#139000
b1000 *
b0 +
b1000 ,
0-
b10000001 #
b1 %
b1010 &
#140000
b1 +
b1001 ,
b10000010 #
b10 %
b1011 &
#141000
b10 +
b1010 ,
b10000011 #
b11 %
b1100 &
#142000
b11 +
b1011 ,
b10000100 #
b100 %
b1101 &
#143000
b100 +
b1100 ,
b10000101 #
b101 %
b1110 &
#144000
b101 +
b1101 ,
b10000110 #
b110 %
b1111 &
#145000
b110 +
b1110 ,
b10000111 #
b111 %
1(
b0 &
#146000
b111 +
b1111 ,
b10001000 #
b1000 %
b1 &
#147000
b1000 +
b0 ,
1-
b10001001 #
b1001 %
b10 &
#148000
b1001 +
b1 ,
b10001010 #
b1010 %
b11 &
#149000
b1010 +
b10 ,
b10001011 #
b1011 %
b100 &
#150000
b1011 +
b11 ,
b10001100 #
b1100 %
b101 &
#151000
b1100 +
b100 ,
b10001101 #
b1101 %
b110 &
#152000
b1101 +
b101 ,
b10001110 #
b1110 %
b111 &
#153000
b1110 +
b110 ,
b10001111 #
b1111 %
b1000 &
#154000
b1111 +
b111 ,
b10010000 #
b1001 $
b0 %
0(
b1010 &
#155000
b1001 *
b0 +
b1001 ,
0-
b10010001 #
b1 %
b1011 &
#156000
b1 +
b1010 ,
b10010010 #
b10 %
b1100 &
#157000
b10 +
b1011 ,
b10010011 #
b11 %
b1101 &
#158000
b11 +
b1100 ,
b10010100 #
b100 %
b1110 &
#159000
b100 +
b1101 ,
b10010101 #
b101 %
b1111 &
#160000
b101 +
b1110 ,
b10010110 #
b110 %
1(
b0 &
#161000
b110 +
b1111 ,
b10010111 #
b111 %
b1 &
#162000
b111 +
b0 ,
1-
b10011000 #
b1000 %
b10 &
#163000
b1000 +
b1 ,
b10011001 #
b1001 %
b11 &
#164000
b1001 +
b10 ,
b10011010 #
b1010 %
b100 &
#165000
b1010 +
b11 ,
b10011011 #
b1011 %
b101 &
#166000
b1011 +
b100 ,
b10011100 #
b1100 %
b110 &
#167000
b1100 +
b101 ,
b10011101 #
b1101 %
b111 &
#168000
b1101 +
b110 ,
b10011110 #
b1110 %
b1000 &
#169000
b1110 +
b111 ,
b10011111 #
b1111 %
b1001 &
#170000
b1111 +
b1000 ,
b10100000 #
b1010 $
b0 %
0(
b1011 &
#171000
b1010 *
b0 +
b1010 ,
0-
b10100001 #
b1 %
b1100 &
#172000
b1 +
b1011 ,
b10100010 #
b10 %
b1101 &
#173000
b10 +
b1100 ,
b10100011 #
b11 %
b1110 &
#174000
b11 +
b1101 ,
b10100100 #
b100 %
b1111 &
#175000
b100 +
b1110 ,
b10100101 #
b101 %
1(
b0 &
#176000
b101 +
b1111 ,
b10100110 #
b110 %
b1 &
#177000
b110 +
b0 ,
1-
b10100111 #
b111 %
b10 &
#178000
b111 +
b1 ,
b10101000 #
b1000 %
b11 &
#179000
b1000 +
b10 ,
b10101001 #
b1001 %
b100 &
#180000
b1001 +
b11 ,
b10101010 #
b1010 %
b101 &
#181000
b1010 +
b100 ,
b10101011 #
b1011 %
b110 &
#182000
b1011 +
b101 ,
b10101100 #
b1100 %
b111 &
#183000
b1100 +
b110 ,
b10101101 #
b1101 %
b1000 &
#184000
b1101 +
b111 ,
b10101110 #
b1110 %
b1001 &
#185000
b1110 +
b1000 ,
b10101111 #
b1111 %
b1010 &
#186000
b1111 +
b1001 ,
b10110000 #
b1011 $
b0 %
0(
b1100 &
#187000
b1011 *
b0 +
b1011 ,
0-
b10110001 #
b1 %
b1101 &
#188000
b1 +
b1100 ,
b10110010 #
b10 %
b1110 &
#189000
b10 +
b1101 ,
b10110011 #
b11 %
b1111 &
#190000
b11 +
b1110 ,
b10110100 #
b100 %
1(
b0 &
#191000
b100 +
b1111 ,
b10110101 #
b101 %
b1 &
#192000
b101 +
b0 ,
1-
b10110110 #
b110 %
b10 &
#193000
b110 +
b1 ,
b10110111 #
b111 %
b11 &
#194000
b111 +
b10 ,
b10111000 #
b1000 %
b100 &
#195000
b1000 +
b11 ,
b10111001 #
b1001 %
b101 &
#196000
b1001 +
b100 ,
b10111010 #
b1010 %
b110 &
#197000
b1010 +
b101 ,
b10111011 #
b1011 %
b111 &
#198000
b1011 +
b110 ,
b10111100 #
b1100 %
b1000 &
#199000
b1100 +
b111 ,
b10111101 #
b1101 %
b1001 &
#200000
b1101 +
b1000 ,
b10111110 #
b1110 %
b1010 &
#201000
b1110 +
b1001 ,
b10111111 #
b1111 %
b1011 &
#202000
b1111 +
b1010 ,
b11000000 #
b1100 $
b0 %
0(
b1101 &
#203000
b1100 *
b0 +
b1100 ,
0-
b11000001 #
b1 %
b1110 &
#204000
b1 +
b1101 ,
b11000010 #
b10 %
b1111 &
#205000
b10 +
b1110 ,
b11000011 #
b11 %
1(
b0 &
#206000
b11 +
b1111 ,
b11000100 #
b100 %
b1 &
#207000
b100 +
b0 ,
1-
b11000101 #
b101 %
b10 &
#208000
b101 +
b1 ,
b11000110 #
b110 %
b11 &
#209000
b110 +
b10 ,
b11000111 #
b111 %
b100 &
#210000
b111 +
b11 ,
b11001000 #
b1000 %
b101 &
#211000
b1000 +
b100 ,
b11001001 #
b1001 %
b110 &
#212000
b1001 +
b101 ,
b11001010 #
b1010 %
b111 &
#213000
b1010 +
b110 ,
b11001011 #
b1011 %
b1000 &
#214000
b1011 +
b111 ,
b11001100 #
b1100 %
b1001 &
#215000
b1100 +
b1000 ,
b11001101 #
b1101 %
b1010 &
#216000
b1101 +
b1001 ,
b11001110 #
b1110 %
b1011 &
#217000
b1110 +
b1010 ,
b11001111 #
b1111 %
b1100 &
#218000
b1111 +
b1011 ,
b11010000 #
b1101 $
b0 %
0(
b1110 &
#219000
b1101 *
b0 +
b1101 ,
0-
b11010001 #
b1 %
b1111 &
#220000
b1 +
b1110 ,
b11010010 #
b10 %
1(
b0 &
#221000
b10 +
b1111 ,
b11010011 #
b11 %
b1 &
#222000
b11 +
b0 ,
1-
b11010100 #
b100 %
b10 &
#223000
b100 +
b1 ,
b11010101 #
b101 %
b11 &
#224000
b101 +
b10 ,
b11010110 #
b110 %
b100 &
#225000
b110 +
b11 ,
b11010111 #
b111 %
b101 &
#226000
b111 +
b100 ,
b11011000 #
b1000 %
b110 &
#227000
b1000 +
b101 ,
b11011001 #
b1001 %
b111 &
#228000
b1001 +
b110 ,
b11011010 #
b1010 %
b1000 &
#229000
b1010 +
b111 ,
b11011011 #
b1011 %
b1001 &
#230000
b1011 +
b1000 ,
b11011100 #
b1100 %
b1010 &
#231000
b1100 +
b1001 ,
b11011101 #
b1101 %
b1011 &
#232000
b1101 +
b1010 ,
b11011110 #
b1110 %
b1100 &
#233000
b1110 +
b1011 ,
b11011111 #
b1111 %
b1101 &
#234000
b1111 +
b1100 ,
b11100000 #
b1110 $
b0 %
0(
b1111 &
#235000
b1110 *
b0 +
b1110 ,
0-
b11100001 #
b1 %
1(
b0 &
#236000
b1 +
b1111 ,
b11100010 #
b10 %
b1 &
#237000
b10 +
b0 ,
1-
b11100011 #
b11 %
b10 &
#238000
b11 +
b1 ,
b11100100 #
b100 %
b11 &
#239000
b100 +
b10 ,
b11100101 #
b101 %
b100 &
#240000
b101 +
b11 ,
b11100110 #
b110 %
b101 &
#241000
b110 +
b100 ,
b11100111 #
b111 %
b110 &
#242000
b111 +
b101 ,
b11101000 #
b1000 %
b111 &
#243000
b1000 +
b110 ,
b11101001 #
b1001 %
b1000 &
#244000
b1001 +
b111 ,
b11101010 #
b1010 %
b1001 &
#245000
b1010 +
b1000 ,
b11101011 #
b1011 %
b1010 &
#246000
b1011 +
b1001 ,
b11101100 #
b1100 %
b1011 &
#247000
b1100 +
b1010 ,
b11101101 #
b1101 %
b1100 &
#248000
b1101 +
b1011 ,
b11101110 #
b1110 %
b1101 &
#249000
b1110 +
b1100 ,
b11101111 #
b1111 %
b1110 &
#250000
b1111 +
b1101 ,
b11110000 #
b1111 $
b0 %
b0 &
#251000
b1111 *
b0 +
b1111 ,
0-
b11110001 #
b1 %
b1 &
#252000
b1 +
b0 ,
1-
b11110010 #
b10 %
b10 &
#253000
b10 +
b1 ,
b11110011 #
b11 %
b11 &
#254000
b11 +
b10 ,
b11110100 #
b100 %
b100 &
#255000
b100 +
b11 ,
b11110101 #
b101 %
b101 &
#256000
b101 +
b100 ,
b11110110 #
b110 %
b110 &
#257000
b110 +
b101 ,
b11110111 #
b111 %
b111 &
#258000
b111 +
b110 ,
b11111000 #
b1000 %
b1000 &
#259000
b1000 +
b111 ,
b11111001 #
b1001 %
b1001 &
#260000
b1001 +
b1000 ,
b11111010 #
b1010 %
b1010 &
#261000
b1010 +
b1001 ,
b11111011 #
b1011 %
b1011 &
#262000
b1011 +
b1010 ,
b11111100 #
b1100 %
b1100 &
#263000
b1100 +
b1011 ,
b11111101 #
b1101 %
b1101 &
#264000
b1101 +
b1100 ,
b11111110 #
b1110 %
b1110 &
#265000
b1110 +
b1101 ,
b11111111 #
b1111 %
b1111 &
#266000
b1111 +
b1110 ,
b100000000 #
#276000
b1 .
b1 '
b0 $
b0 %
0(
b0 &
#277000
b1 )
b0 *
b0 +
b0 ,
0-
b1 %
1(
b1111 &
#278000
b1 +
b1111 ,
1-
b10 %
b1110 &
#279000
b10 +
b1110 ,
b11 %
b1101 &
#280000
b11 +
b1101 ,
b100 %
b1100 &
#281000
b100 +
b1100 ,
b101 %
b1011 &
#282000
b101 +
b1011 ,
b110 %
b1010 &
#283000
b110 +
b1010 ,
b111 %
b1001 &
#284000
b111 +
b1001 ,
b1000 %
b1000 &
#285000
b1000 +
b1000 ,
b1001 %
b111 &
#286000
b1001 +
b111 ,
b1010 %
b110 &
#287000
b1010 +
b110 ,
b1011 %
b101 &
#288000
b1011 +
b101 ,
b1100 %
b100 &
#289000
b1100 +
b100 ,
b1101 %
b11 &
#290000
b1101 +
b11 ,
b1110 %
b10 &
#291000
b1110 +
b10 ,
b1111 %
b1 &
#292000
b1111 +
b1 ,
b1 $
b0 %
0(
#293000
b1 *
b0 +
0-
b1 %
b0 &
#294000
b1 +
b0 ,
b10 %
1(
b1111 &
#295000
b10 +
b1111 ,
1-
b11 %
b1110 &
#296000
b11 +
b1110 ,
b100 %
b1101 &
#297000
b100 +
b1101 ,
b101 %
b1100 &
#298000
b101 +
b1100 ,
b110 %
b1011 &
#299000
b110 +
b1011 ,
b111 %
b1010 &
#300000
b111 +
b1010 ,
b1000 %
b1001 &
#301000
b1000 +
b1001 ,
b1001 %
b1000 &
#302000
b1001 +
b1000 ,
b1010 %
b111 &
#303000
b1010 +
b111 ,
b1011 %
b110 &
#304000
b1011 +
b110 ,
b1100 %
b101 &
#305000
b1100 +
b101 ,
b1101 %
b100 &
#306000
b1101 +
b100 ,
b1110 %
b11 &
#307000
b1110 +
b11 ,
b1111 %
b10 &
#308000
b1111 +
b10 ,
b10 $
b0 %
0(
#309000
b10 *
b0 +
0-
b1 %
b1 &
#310000
b1 +
b1 ,
b10 %
b0 &
#311000
b10 +
b0 ,
b11 %
1(
b1111 &
#312000
b11 +
b1111 ,
1-
b100 %
b1110 &
#313000
b100 +
b1110 ,
b101 %
b1101 &
#314000
b101 +
b1101 ,
b110 %
b1100 &
#315000
b110 +
b1100 ,
b111 %
b1011 &
#316000
b111 +
b1011 ,
b1000 %
b1010 &
#317000
b1000 +
b1010 ,
b1001 %
b1001 &
#318000
b1001 +
b1001 ,
b1010 %
b1000 &
#319000
b1010 +
b1000 ,
b1011 %
b111 &
#320000
b1011 +
b111 ,
b1100 %
b110 &
#321000
b1100 +
b110 ,
b1101 %
b101 &
#322000
b1101 +
b101 ,
b1110 %
b100 &
#323000
b1110 +
b100 ,
b1111 %
b11 &
#324000
b1111 +
b11 ,
b11 $
b0 %
0(
#325000
b11 *
b0 +
0-
b1 %
b10 &
#326000
b1 +
b10 ,
b10 %
b1 &
#327000
b10 +
b1 ,
b11 %
b0 &
#328000
b11 +
b0 ,
b100 %
1(
b1111 &
#329000
b100 +
b1111 ,
1-
b101 %
b1110 &
#330000
b101 +
b1110 ,
b110 %
b1101 &
#331000
b110 +
b1101 ,
b111 %
b1100 &
#332000
b111 +
b1100 ,
b1000 %
b1011 &
#333000
b1000 +
b1011 ,
b1001 %
b1010 &
#334000
b1001 +
b1010 ,
b1010 %
b1001 &
#335000
b1010 +
b1001 ,
b1011 %
b1000 &
#336000
b1011 +
b1000 ,
b1100 %
b111 &
#337000
b1100 +
b111 ,
b1101 %
b110 &
#338000
b1101 +
b110 ,
b1110 %
b101 &
#339000
b1110 +
b101 ,
b1111 %
b100 &
#340000
b1111 +
b100 ,
b100 $
b0 %
0(
#341000
b100 *
b0 +
0-
b1 %
b11 &
#342000
b1 +
b11 ,
b10 %
b10 &
#343000
b10 +
b10 ,
b11 %
b1 &
#344000
b11 +
b1 ,
b100 %
b0 &
#345000
b100 +
b0 ,
b101 %
1(
b1111 &
#346000
b101 +
b1111 ,
1-
b110 %
b1110 &
#347000
b110 +
b1110 ,
b111 %
b1101 &
#348000
b111 +
b1101 ,
b1000 %
b1100 &
#349000
b1000 +
b1100 ,
b1001 %
b1011 &
#350000
b1001 +
b1011 ,
b1010 %
b1010 &
#351000
b1010 +
b1010 ,
b1011 %
b1001 &
#352000
b1011 +
b1001 ,
b1100 %
b1000 &
#353000
b1100 +
b1000 ,
b1101 %
b111 &
#354000
b1101 +
b111 ,
b1110 %
b110 &
#355000
b1110 +
b110 ,
b1111 %
b101 &
#356000
b1111 +
b101 ,
b101 $
b0 %
0(
#357000
b101 *
b0 +
0-
b1 %
b100 &
#358000
b1 +
b100 ,
b10 %
b11 &
#359000
b10 +
b11 ,
b11 %
b10 &
#360000
b11 +
b10 ,
b100 %
b1 &
#361000
b100 +
b1 ,
b101 %
b0 &
#362000
b101 +
b0 ,
b110 %
1(
b1111 &
#363000
b110 +
b1111 ,
1-
b111 %
b1110 &
#364000
b111 +
b1110 ,
b1000 %
b1101 &
#365000
b1000 +
b1101 ,
b1001 %
b1100 &
#366000
b1001 +
b1100 ,
b1010 %
b1011 &
#367000
b1010 +
b1011 ,
b1011 %
b1010 &
#368000
b1011 +
b1010 ,
b1100 %
b1001 &
#369000
b1100 +
b1001 ,
b1101 %
b1000 &
#370000
b1101 +
b1000 ,
b1110 %
b111 &
#371000
b1110 +
b111 ,
b1111 %
b110 &
#372000
b1111 +
b110 ,
b110 $
b0 %
0(
#373000
b110 *
b0 +
0-
b1 %
b101 &
#374000
b1 +
b101 ,
b10 %
b100 &
#375000
b10 +
b100 ,
b11 %
b11 &
#376000
b11 +
b11 ,
b100 %
b10 &
#377000
b100 +
b10 ,
b101 %
b1 &
#378000
b101 +
b1 ,
b110 %
b0 &
#379000
b110 +
b0 ,
b111 %
1(
b1111 &
#380000
b111 +
b1111 ,
1-
b1000 %
b1110 &
#381000
b1000 +
b1110 ,
b1001 %
b1101 &
#382000
b1001 +
b1101 ,
b1010 %
b1100 &
#383000
b1010 +
b1100 ,
b1011 %
b1011 &
#384000
b1011 +
b1011 ,
b1100 %
b1010 &
#385000
b1100 +
b1010 ,
b1101 %
b1001 &
#386000
b1101 +
b1001 ,
b1110 %
b1000 &
#387000
b1110 +
b1000 ,
b1111 %
b111 &
#388000
b1111 +
b111 ,
b111 $
b0 %
0(
#389000
b111 *
b0 +
0-
b1 %
b110 &
#390000
b1 +
b110 ,
b10 %
b101 &
#391000
b10 +
b101 ,
b11 %
b100 &
#392000
b11 +
b100 ,
b100 %
b11 &
#393000
b100 +
b11 ,
b101 %
b10 &
#394000
b101 +
b10 ,
b110 %
b1 &
#395000
b110 +
b1 ,
b111 %
b0 &
#396000
b111 +
b0 ,
b1000 %
1(
b1111 &
#397000
b1000 +
b1111 ,
1-
b1001 %
b1110 &
#398000
b1001 +
b1110 ,
b1010 %
b1101 &
#399000
b1010 +
b1101 ,
b1011 %
b1100 &
#400000
b1011 +
b1100 ,
b1100 %
b1011 &
#401000
b1100 +
b1011 ,
b1101 %
b1010 &
#402000
b1101 +
b1010 ,
b1110 %
b1001 &
#403000
b1110 +
b1001 ,
b1111 %
b1000 &
#404000
b1111 +
b1000 ,
b1000 $
b0 %
0(
#405000
b1000 *
b0 +
0-
b1 %
b111 &
#406000
b1 +
b111 ,
b10 %
b110 &
#407000
b10 +
b110 ,
b11 %
b101 &
#408000
b11 +
b101 ,
b100 %
b100 &
#409000
b100 +
b100 ,
b101 %
b11 &
#410000
b101 +
b11 ,
b110 %
b10 &
#411000
b110 +
b10 ,
b111 %
b1 &
#412000
b111 +
b1 ,
b1000 %
b0 &
#413000
b1000 +
b0 ,
b1001 %
1(
b1111 &
#414000
b1001 +
b1111 ,
1-
b1010 %
b1110 &
#415000
b1010 +
b1110 ,
b1011 %
b1101 &
#416000
b1011 +
b1101 ,
b1100 %
b1100 &
#417000
b1100 +
b1100 ,
b1101 %
b1011 &
#418000
b1101 +
b1011 ,
b1110 %
b1010 &
#419000
b1110 +
b1010 ,
b1111 %
b1001 &
#420000
b1111 +
b1001 ,
b1001 $
b0 %
0(
#421000
b1001 *
b0 +
0-
b1 %
b1000 &
#422000
b1 +
b1000 ,
b10 %
b111 &
#423000
b10 +
b111 ,
b11 %
b110 &
#424000
b11 +
b110 ,
b100 %
b101 &
#425000
b100 +
b101 ,
b101 %
b100 &
#426000
b101 +
b100 ,
b110 %
b11 &
#427000
b110 +
b11 ,
b111 %
b10 &
#428000
b111 +
b10 ,
b1000 %
b1 &
#429000
b1000 +
b1 ,
b1001 %
b0 &
#430000
b1001 +
b0 ,
b1010 %
1(
b1111 &
#431000
b1010 +
b1111 ,
1-
b1011 %
b1110 &
#432000
b1011 +
b1110 ,
b1100 %
b1101 &
#433000
b1100 +
b1101 ,
b1101 %
b1100 &
#434000
b1101 +
b1100 ,
b1110 %
b1011 &
#435000
b1110 +
b1011 ,
b1111 %
b1010 &
#436000
b1111 +
b1010 ,
b1010 $
b0 %
0(
#437000
b1010 *
b0 +
0-
b1 %
b1001 &
#438000
b1 +
b1001 ,
b10 %
b1000 &
#439000
b10 +
b1000 ,
b11 %
b111 &
#440000
b11 +
b111 ,
b100 %
b110 &
#441000
b100 +
b110 ,
b101 %
b101 &
#442000
b101 +
b101 ,
b110 %
b100 &
#443000
b110 +
b100 ,
b111 %
b11 &
#444000
b111 +
b11 ,
b1000 %
b10 &
#445000
b1000 +
b10 ,
b1001 %
b1 &
#446000
b1001 +
b1 ,
b1010 %
b0 &
#447000
b1010 +
b0 ,
b1011 %
1(
b1111 &
#448000
b1011 +
b1111 ,
1-
b1100 %
b1110 &
#449000
b1100 +
b1110 ,
b1101 %
b1101 &
#450000
b1101 +
b1101 ,
b1110 %
b1100 &
#451000
b1110 +
b1100 ,
b1111 %
b1011 &
#452000
b1111 +
b1011 ,
b1011 $
b0 %
0(
#453000
b1011 *
b0 +
0-
b1 %
b1010 &
#454000
b1 +
b1010 ,
b10 %
b1001 &
#455000
b10 +
b1001 ,
b11 %
b1000 &
#456000
b11 +
b1000 ,
b100 %
b111 &
#457000
b100 +
b111 ,
b101 %
b110 &
#458000
b101 +
b110 ,
b110 %
b101 &
#459000
b110 +
b101 ,
b111 %
b100 &
#460000
b111 +
b100 ,
b1000 %
b11 &
#461000
b1000 +
b11 ,
b1001 %
b10 &
#462000
b1001 +
b10 ,
b1010 %
b1 &
#463000
b1010 +
b1 ,
b1011 %
b0 &
#464000
b1011 +
b0 ,
b1100 %
1(
b1111 &
#465000
b1100 +
b1111 ,
1-
b1101 %
b1110 &
#466000
b1101 +
b1110 ,
b1110 %
b1101 &
#467000
b1110 +
b1101 ,
b1111 %
b1100 &
#468000
b1111 +
b1100 ,
b1100 $
b0 %
0(
#469000
b1100 *
b0 +
0-
b1 %
b1011 &
#470000
b1 +
b1011 ,
b10 %
b1010 &
#471000
b10 +
b1010 ,
b11 %
b1001 &
#472000
b11 +
b1001 ,
b100 %
b1000 &
#473000
b100 +
b1000 ,
b101 %
b111 &
#474000
b101 +
b111 ,
b110 %
b110 &
