lab_2/data/alu_waves_v2.vcd
$date
	Thu Mar 19 23:28:17 2026
$end
$version
	Questa Intel FPGA Edition Version 2024.3
$end
$timescale
	1ps
$end

$scope module alu_4bit_tb $end
$var parameter 32 ! I_SIZE $end
$var parameter 32 " O_SIZE $end
$var integer 32 # err_count $end
$var reg 4 $ A [3:0] $end
$var reg 4 % B [3:0] $end
$var reg 4 & Y [3:0] $end
$var reg 3 ' op [2:0] $end
$var reg 1 ( carry $end

$scope task assert_w $end
$var reg 3 ) operand [2:0] $end
$var integer 32 * a $end
$var integer 32 + b $end
$var reg 4 , expected_Y [3:0] $end
$var reg 1 - expected_carry $end
$upscope $end

$scope task test_op $end
$var reg 3 . operand [2:0] $end
$upscope $end

$scope module dut $end
$upscope $end
$upscope $end
$enddefinitions $end
#0
$dumpvars
bx $
bx %
bx &
bx '
x(
bx )
bx ,
x-
bx .
b100 !
b11 "
b0 #
b0 *
b0 +
$end
#10000
b0 .
b0 '
b0 $
b0 %
0(
b0 &
#11000
b0 )
b0 ,
0-
b1 %
b1 &
#12000
b1 +
b1 ,
b10 %
b10 &
#13000
b10 +
b10 ,
b11 %
b11 &
#14000
b11 +
b11 ,
b100 %
b100 &
#15000
b100 +
b100 ,
b101 %
b101 &
#16000
b101 +
b101 ,
b110 %
b110 &
#17000
b110 +
b110 ,
b111 %
b111 &
#18000
b111 +
b111 ,
b1000 %
b1000 &
#19000
b1000 +
b1000 ,
b1001 %
b1001 &
#20000
b1001 +
b1001 ,
b1010 %
b1010 &
#21000
b1010 +
b1010 ,
b1011 %
b1011 &
#22000
b1011 +
b1011 ,
b1100 %
b1100 &
#23000
b1100 +
b1100 ,
b1101 %
b1101 &
#24000
b1101 +
b1101 ,
b1110 %
b1110 &
#25000
b1110 +
b1110 ,
b1111 %
b1111 &
#26000
b1111 +
b1111 ,
b1 $
b0 %
b1 &
#27000
b1 *
b0 +
b1 ,
b1 %
b10 &
#28000
b1 +
b10 ,
b10 %
b11 &
#29000
b10 +
b11 ,
b11 %
b100 &
#30000
b11 +
b100 ,
b100 %
b101 &
#31000
b100 +
b101 ,
b101 %
b110 &
#32000
b101 +
b110 ,
b110 %
b111 &
#33000
b110 +
b111 ,
b111 %
b1000 &
#34000
b111 +
b1000 ,
b1000 %
b1001 &
#35000
b1000 +
b1001 ,
b1001 %
b1010 &
#36000
b1001 +
b1010 ,
b1010 %
b1011 &
#37000
b1010 +
b1011 ,
b1011 %
b1100 &
#38000
b1011 +
b1100 ,
b1100 %
b1101 &
#39000
b1100 +
b1101 ,
b1101 %
b1110 &
#40000
b1101 +
b1110 ,
b1110 %
b1111 &
#41000
b1110 +
b1111 ,
b1111 %
1(
b0 &
#42000
b1111 +
b0 ,
1-
b10 $
b0 %
0(
b10 &
#43000
b10 *
b0 +
b10 ,
0-
b1 %
b11 &
#44000
b1 +
b11 ,
b10 %
b100 &
#45000
b10 +
b100 ,
b11 %
b101 &
#46000
b11 +
b101 ,
b100 %
b110 &
#47000
b100 +
b110 ,
b101 %
b111 &
#48000
b101 +
b111 ,
b110 %
b1000 &
#49000
b110 +
b1000 ,
b111 %
b1001 &
#50000
b111 +
b1001 ,
b1000 %
b1010 &
#51000
b1000 +
b1010 ,
b1001 %
b1011 &
#52000
b1001 +
b1011 ,
b1010 %
b1100 &
#53000
b1010 +
b1100 ,
b1011 %
b1101 &
#54000
b1011 +
b1101 ,
b1100 %
b1110 &
#55000
b1100 +
b1110 ,
b1101 %
b1111 &
#56000
b1101 +
b1111 ,
b1110 %
1(
b0 &
#57000
b1110 +
b0 ,
1-
b1111 %
b1 &
#58000
b1111 +
b1 ,
b11 $
b0 %
0(
b11 &
#59000
b11 *
b0 +
b11 ,
0-
b1 %
b100 &
#60000
b1 +
b100 ,
b10 %
b101 &
#61000
b10 +
b101 ,
b11 %
b110 &
#62000
b11 +
b110 ,
b100 %
b111 &
#63000
b100 +
b111 ,
b101 %
b1000 &
#64000
b101 +
b1000 ,
b110 %
b1001 &
#65000
b110 +
b1001 ,
b111 %
b1010 &
#66000
b111 +
b1010 ,
b1000 %
b1011 &
#67000
b1000 +
b1011 ,
b1001 %
b1100 &
#68000
b1001 +
b1100 ,
b1010 %
b1101 &
#69000
b1010 +
b1101 ,
b1011 %
b1110 &
#70000
b1011 +
b1110 ,
b1100 %
b1111 &
#71000
b1100 +
b1111 ,
b1101 %
1(
b0 &
#72000
b1101 +
b0 ,
1-
b1110 %
b1 &
#73000
b1110 +
b1 ,
b1111 %
b10 &
#74000
b1111 +
b10 ,
b100 $
b0 %
0(
b100 &
#75000
b100 *
b0 +
b100 ,
0-
b1 %
b101 &
#76000
b1 +
b101 ,
b10 %
b110 &
#77000
b10 +
b110 ,
b11 %
b111 &
#78000
b11 +
b111 ,
b100 %
b1000 &
#79000
b100 +
b1000 ,
b101 %
b1001 &
#80000
b101 +
b1001 ,
b110 %
b1010 &
#81000
b110 +
b1010 ,
b111 %
b1011 &
#82000
b111 +
b1011 ,
b1000 %
b1100 &
#83000
b1000 +
b1100 ,
b1001 %
b1101 &
#84000
b1001 +
b1101 ,
b1010 %
b1110 &
#85000
b1010 +
b1110 ,
b1011 %
b1111 &
#86000
b1011 +
b1111 ,
b1100 %
1(
b0 &
#87000
b1100 +
b0 ,
1-
b1101 %
b1 &
#88000
b1101 +
b1 ,
b1110 %
b10 &
#89000
b1110 +
b10 ,
b1111 %
b11 &
#90000
b1111 +
b11 ,
b101 $
b0 %
0(
b101 &
#91000
b101 *
b0 +
b101 ,
0-
b1 %
b110 &
#92000
b1 +
b110 ,
b10 %
b111 &
#93000
b10 +
b111 ,
b11 %
b1000 &
#94000
b11 +
b1000 ,
b100 %
b1001 &
#95000
b100 +
b1001 ,
b101 %
b1010 &
#96000
b101 +
b1010 ,
b110 %
b1011 &
#97000
b110 +
b1011 ,
b111 %
b1100 &
#98000
b111 +
b1100 ,
b1000 %
b1101 &
#99000
b1000 +
b1101 ,
b1001 %
b1110 &
#100000
b1001 +
b1110 ,
b1010 %
b1111 &
#101000
b1010 +
b1111 ,
b1011 %
1(
b0 &
#102000
b1011 +
b0 ,
1-
b1100 %
b1 &
#103000
b1100 +
b1 ,
b1101 %
b10 &
#104000
b1101 +
b10 ,
b1110 %
b11 &
#105000
b1110 +
b11 ,
b1111 %
b100 &
#106000
b1111 +
b100 ,
b110 $
b0 %
0(
b110 &
#107000
b110 *
b0 +
b110 ,
0-
b1 %
b111 &
#108000
b1 +
b111 ,
b10 %
b1000 &
#109000
b10 +
b1000 ,
b11 %
b1001 &
#110000
b11 +
b1001 ,
b100 %
b1010 &
#111000
b100 +
b1010 ,
b101 %
b1011 &
#112000
b101 +
b1011 ,
b110 %
b1100 &
#113000
b110 +
b1100 ,
b111 %
b1101 &
#114000
b111 +
b1101 ,
b1000 %
b1110 &
#115000
b1000 +
b1110 ,
b1001 %
b1111 &
#116000
b1001 +
b1111 ,
b1010 %
1(
b0 &
#117000
b1010 +
b0 ,
1-
b1011 %
b1 &
#118000
b1011 +
b1 ,
b1100 %
b10 &
#119000
b1100 +
b10 ,
b1101 %
b11 &
#120000
b1101 +
b11 ,
b1110 %
b100 &
#121000
b1110 +
b100 ,
b1111 %
b101 &
#122000
b1111 +
b101 ,
b111 $
b0 %
0(
b111 &
#123000
b111 *
b0 +
b111 ,
0-
b1 %
b1000 &
#124000
b1 +
b1000 ,
b10 %
b1001 &
#125000
b10 +
b1001 ,
b11 %
b1010 &
#126000
b11 +
b1010 ,
b100 %
b1011 &
#127000
b100 +
b1011 ,
b101 %
b1100 &
#128000
b101 +
b1100 ,
b110 %
b1101 &
#129000
b110 +
b1101 ,
b111 %
b1110 &
#130000
b111 +
b1110 ,
b1000 %
b1111 &
#131000
b1000 +
b1111 ,
b1001 %
1(
b0 &
#132000
b1001 +
b0 ,
1-
b1010 %
b1 &
#133000
b1010 +
b1 ,
b1011 %
b10 &
#134000
b1011 +
b10 ,
b1100 %
b11 &
#135000
b1100 +
b11 ,
b1101 %
b100 &
#136000
b1101 +
b100 ,
b1110 %
b101 &
#137000
b1110 +
b101 ,
b1111 %
b110 &
#138000
b1111 +
b110 ,
b1000 $
b0 %
0(
b1000 &
#139000
b1000 *
b0 +
b1000 ,
0-
b1 %
b1001 &
#140000
b1 +
b1001 ,
b10 %
b1010 &
#141000
b10 +
b1010 ,
b11 %
b1011 &
#142000
b11 +
b1011 ,
b100 %
b1100 &
#143000
b100 +
b1100 ,
b101 %
b1101 &
#144000
b101 +
b1101 ,
b110 %
b1110 &
#145000
b110 +
b1110 ,
b111 %
b1111 &
#146000
b111 +
b1111 ,
b1000 %
1(
b0 &
#147000
b1000 +
b0 ,
1-
b1001 %
b1 &
#148000
b1001 +
b1 ,
b1010 %
b10 &
#149000
b1010 +
b10 ,
b1011 %
b11 &
#150000
b1011 +
b11 ,
b1100 %
b100 &
#151000
b1100 +
b100 ,
b1101 %
b101 &
#152000
b1101 +
b101 ,
b1110 %
b110 &
#153000
b1110 +
b110 ,
b1111 %
b111 &
#154000
b1111 +
b111 ,
b1001 $
b0 %
0(
b1001 &
#155000
b1001 *
b0 +
b1001 ,
0-
b1 %
b1010 &
#156000
b1 +
b1010 ,
b10 %
b1011 &
#157000
b10 +
b1011 ,
b11 %
b1100 &
#158000
b11 +
b1100 ,
b100 %
b1101 &
#159000
b100 +
b1101 ,
b101 %
b1110 &
#160000
b101 +
b1110 ,
b110 %
b1111 &
#161000
b110 +
b1111 ,
b111 %
1(
b0 &
#162000
b111 +
b0 ,
1-
b1000 %
b1 &
#163000
b1000 +
b1 ,
b1001 %
b10 &
#164000
b1001 +
b10 ,
b1010 %
b11 &
#165000
b1010 +
b11 ,
b1011 %
b100 &
#166000
b1011 +
b100 ,
b1100 %
b101 &
#167000
b1100 +
b101 ,
b1101 %
b110 &
#168000
b1101 +
b110 ,
b1110 %
b111 &
#169000
b1110 +
b111 ,
b1111 %
b1000 &
#170000
b1111 +
b1000 ,
b1010 $
b0 %
0(
b1010 &
#171000
b1010 *
b0 +
b1010 ,
0-
b1 %
b1011 &
#172000
b1 +
b1011 ,
b10 %
b1100 &
#173000
b10 +
b1100 ,
b11 %
b1101 &
#174000
b11 +
b1101 ,
b100 %
b1110 &
#175000
b100 +
b1110 ,
b101 %
b1111 &
#176000
b101 +
b1111 ,
b110 %
1(
b0 &
#177000
b110 +
b0 ,
1-
b111 %
b1 &
#178000
b111 +
b1 ,
b1000 %
b10 &
#179000
b1000 +
b10 ,
b1001 %
b11 &
#180000
b1001 +
b11 ,
b1010 %
b100 &
#181000
b1010 +
b100 ,
b1011 %
b101 &
#182000
b1011 +
b101 ,
b1100 %
b110 &
#183000
b1100 +
b110 ,
b1101 %
b111 &
#184000
b1101 +
b111 ,
b1110 %
b1000 &
#185000
b1110 +
b1000 ,
b1111 %
b1001 &
#186000
b1111 +
b1001 ,
b1011 $
b0 %
0(
b1011 &
#187000
b1011 *
b0 +
b1011 ,
0-
b1 %
b1100 &
#188000
b1 +
b1100 ,
b10 %
b1101 &
#189000
b10 +
b1101 ,
b11 %
b1110 &
#190000
b11 +
b1110 ,
b100 %
b1111 &
#191000
b100 +
b1111 ,
b101 %
1(
b0 &
#192000
b101 +
b0 ,
1-
b110 %
b1 &
#193000
b110 +
b1 ,
b111 %
b10 &
#194000
b111 +
b10 ,
b1000 %
b11 &
#195000
b1000 +
b11 ,
b1001 %
b100 &
#196000
b1001 +
b100 ,
b1010 %
b101 &
#197000
b1010 +
b101 ,
b1011 %
b110 &
#198000
b1011 +
b110 ,
b1100 %
b111 &
#199000
b1100 +
b111 ,
b1101 %
b1000 &
#200000
b1101 +
b1000 ,
b1110 %
b1001 &
#201000
b1110 +
b1001 ,
b1111 %
b1010 &
#202000
b1111 +
b1010 ,
b1100 $
b0 %
0(
b1100 &
#203000
b1100 *
b0 +
b1100 ,
0-
b1 %
b1101 &
#204000
b1 +
b1101 ,
b10 %
b1110 &
#205000
b10 +
b1110 ,
b11 %
b1111 &
#206000
b11 +
b1111 ,
b100 %
1(
b0 &
#207000
b100 +
b0 ,
1-
b101 %
b1 &
#208000
b101 +
b1 ,
b110 %
b10 &
#209000
b110 +
b10 ,
b111 %
b11 &
#210000
b111 +
b11 ,
b1000 %
b100 &
#211000
b1000 +
b100 ,
b1001 %
b101 &
#212000
b1001 +
b101 ,
b1010 %
b110 &
#213000
b1010 +
b110 ,
b1011 %
b111 &
#214000
b1011 +
b111 ,
b1100 %
b1000 &
#215000
b1100 +
b1000 ,
b1101 %
b1001 &
#216000
b1101 +
b1001 ,
b1110 %
b1010 &
#217000
b1110 +
b1010 ,
b1111 %
b1011 &
#218000
b1111 +
b1011 ,
b1101 $
b0 %
0(
b1101 &
#219000
b1101 *
b0 +
b1101 ,
0-
b1 %
b1110 &
#220000
b1 +
b1110 ,
b10 %
b1111 &
#221000
b10 +
b1111 ,
b11 %
1(
b0 &
#222000
b11 +
b0 ,
1-
b100 %
b1 &
#223000
b100 +
b1 ,
b101 %
b10 &
#224000
b101 +
b10 ,
b110 %
b11 &
#225000
b110 +
b11 ,
b111 %
b100 &
#226000
b111 +
b100 ,
b1000 %
b101 &
#227000
b1000 +
b101 ,
b1001 %
b110 &
#228000
b1001 +
b110 ,
b1010 %
b111 &
#229000
b1010 +
b111 ,
b1011 %
b1000 &
#230000
b1011 +
b1000 ,
b1100 %
b1001 &
#231000
b1100 +
b1001 ,
b1101 %
b1010 &
#232000
b1101 +
b1010 ,
b1110 %
b1011 &
#233000
b1110 +
b1011 ,
b1111 %
b1100 &
#234000
b1111 +
b1100 ,
b1110 $
b0 %
0(
b1110 &
#235000
b1110 *
b0 +
b1110 ,
0-
b1 %
b1111 &
#236000
b1 +
b1111 ,
b10 %
1(
b0 &
#237000
b10 +
b0 ,
1-
b11 %
b1 &
#238000
b11 +
b1 ,
b100 %
b10 &
#239000
b100 +
b10 ,
b101 %
b11 &
#240000
b101 +
b11 ,
b110 %
b100 &
#241000
b110 +
b100 ,
b111 %
b101 &
#242000
b111 +
b101 ,
b1000 %
b110 &
#243000
b1000 +
b110 ,
b1001 %
b111 &
#244000
b1001 +
b111 ,
b1010 %
b1000 &
#245000
b1010 +
b1000 ,
b1011 %
b1001 &
#246000
b1011 +
b1001 ,
b1100 %
b1010 &
#247000
b1100 +
b1010 ,
b1101 %
b1011 &
#248000
b1101 +
b1011 ,
b1110 %
b1100 &
#249000
b1110 +
b1100 ,
b1111 %
b1101 &
#250000
b1111 +
b1101 ,
b1111 $
b0 %
0(
b1111 &
#251000
b1111 *
b0 +
b1111 ,
0-
b1 %
1(
b0 &
#252000
b1 +
b0 ,
1-
b10 %
b1 &
#253000
b10 +
b1 ,
b11 %
b10 &
#254000
b11 +
b10 ,
b100 %
b11 &
#255000
b100 +
b11 ,
b101 %
b100 &
#256000
b101 +
b100 ,
b110 %
b101 &
#257000
b110 +
b101 ,
b111 %
b110 &
#258000
b111 +
b110 ,
b1000 %
b111 &
#259000
b1000 +
b111 ,
b1001 %
b1000 &
#260000
b1001 +
b1000 ,
b1010 %
b1001 &
#261000
b1010 +
b1001 ,
b1011 %
b1010 &
#262000
b1011 +
b1010 ,
b1100 %
b1011 &
#263000
b1100 +
b1011 ,
b1101 %
b1100 &
#264000
b1101 +
b1100 ,
b1110 %
b1101 &
#265000
b1110 +
b1101 ,
b1111 %
b1110 &
#266000
b1111 +
b1110 ,
#276000
b1 .
b1 '
b0 $
b0 %
0(
b0 &
#277000
b1 )
b0 *
b0 +
b0 ,
0-
b1 %
b1111 &
#278000
b1 +
b1111 ,
1-
b1 #
b10 %
b1110 &
#279000
b10 +
b1110 ,
b10 #
b11 %
b1101 &
#280000
b11 +
b1101 ,
b11 #
b100 %
b1100 &
#281000
b100 +
b1100 ,
b100 #
b101 %
b1011 &
#282000
b101 +
b1011 ,
b101 #
b110 %
b1010 &
#283000
b110 +
b1010 ,
b110 #
b111 %
b1001 &
#284000
b111 +
b1001 ,
b111 #
b1000 %
b1000 &
#285000
b1000 +
b1000 ,
b1000 #
b1001 %
b111 &
#286000
b1001 +
b111 ,
b1001 #
b1010 %
b110 &
#287000
b1010 +
b110 ,
b1010 #
b1011 %
b101 &
#288000
b1011 +
b101 ,
b1011 #
b1100 %
b100 &
#289000
b1100 +
b100 ,
b1100 #
b1101 %
b11 &
#290000
b1101 +
b11 ,
b1101 #
b1110 %
b10 &
#291000
b1110 +
b10 ,
b1110 #
b1111 %
b1 &
#292000
b1111 +
b1 ,
b1111 #
b1 $
b0 %
#293000
b1 *
b0 +
0-
b1 %
b0 &
#294000
b1 +
b0 ,
b10 %
b1111 &
#295000
b10 +
b1111 ,
1-
b10000 #
b11 %
b1110 &
#296000
b11 +
b1110 ,
b10001 #
b100 %
b1101 &
#297000
b100 +
b1101 ,
b10010 #
b101 %
b1100 &
#298000
b101 +
b1100 ,
b10011 #
b110 %
b1011 &
#299000
b110 +
b1011 ,
b10100 #
b111 %
b1010 &
#300000
b111 +
b1010 ,
b10101 #
b1000 %
b1001 &
#301000
b1000 +
b1001 ,
b10110 #
b1001 %
b1000 &
#302000
b1001 +
b1000 ,
b10111 #
b1010 %
b111 &
#303000
b1010 +
b111 ,
b11000 #
b1011 %
b110 &
#304000
b1011 +
b110 ,
b11001 #
b1100 %
b101 &
#305000
b1100 +
b101 ,
b11010 #
b1101 %
b100 &
#306000
b1101 +
b100 ,
b11011 #
b1110 %
b11 &
#307000
b1110 +
b11 ,
b11100 #
b1111 %
b10 &
#308000
b1111 +
b10 ,
b11101 #
b10 $
b0 %
#309000
b10 *
b0 +
0-
b1 %
b1 &
#310000
b1 +
b1 ,
b10 %
b0 &
#311000
b10 +
b0 ,
b11 %
b1111 &
#312000
b11 +
b1111 ,
1-
b11110 #
b100 %
b1110 &
#313000
b100 +
b1110 ,
b11111 #
b101 %
b1101 &
#314000
b101 +
b1101 ,
b100000 #
b110 %
b1100 &
#315000
b110 +
b1100 ,
b100001 #
b111 %
b1011 &
#316000
b111 +
b1011 ,
b100010 #
b1000 %
b1010 &
#317000
b1000 +
b1010 ,
b100011 #
b1001 %
b1001 &
#318000
b1001 +
b1001 ,
b100100 #
b1010 %
b1000 &
#319000
b1010 +
b1000 ,
b100101 #
b1011 %
b111 &
#320000
b1011 +
b111 ,
b100110 #
b1100 %
b110 &
#321000
b1100 +
b110 ,
b100111 #
b1101 %
b101 &
#322000
b1101 +
b101 ,
b101000 #
b1110 %
b100 &
#323000
b1110 +
b100 ,
b101001 #
b1111 %
b11 &
#324000
b1111 +
b11 ,
b101010 #
b11 $
b0 %
#325000
b11 *
b0 +
0-
b1 %
b10 &
#326000
b1 +
b10 ,
b10 %
b1 &
#327000
b10 +
b1 ,
b11 %
b0 &
#328000
b11 +
b0 ,
b100 %
b1111 &
#329000
b100 +
b1111 ,
1-
b101011 #
b101 %
b1110 &
#330000
b101 +
b1110 ,
b101100 #
b110 %
b1101 &
#331000
b110 +
b1101 ,
b101101 #
b111 %
b1100 &
#332000
b111 +
b1100 ,
b101110 #
b1000 %
b1011 &
#333000
b1000 +
b1011 ,
b101111 #
b1001 %
b1010 &
#334000
b1001 +
b1010 ,
b110000 #
b1010 %
b1001 &
#335000
b1010 +
b1001 ,
b110001 #
b1011 %
b1000 &
#336000
b1011 +
b1000 ,
b110010 #
b1100 %
b111 &
#337000
b1100 +
b111 ,
b110011 #
b1101 %
b110 &
#338000
b1101 +
b110 ,
b110100 #
b1110 %
b101 &
#339000
b1110 +
b101 ,
b110101 #
b1111 %
b100 &
#340000
b1111 +
b100 ,
b110110 #
b100 $
b0 %
#341000
b100 *
b0 +
0-
b1 %
b11 &
#342000
b1 +
b11 ,
b10 %
b10 &
#343000
b10 +
b10 ,
b11 %
b1 &
#344000
b11 +
b1 ,
b100 %
b0 &
#345000
b100 +
b0 ,
b101 %
b1111 &
#346000
b101 +
b1111 ,
1-
b110111 #
b110 %
b1110 &
#347000
b110 +
b1110 ,
b111000 #
b111 %
b1101 &
#348000
b111 +
b1101 ,
b111001 #
b1000 %
b1100 &
#349000
b1000 +
b1100 ,
b111010 #
b1001 %
b1011 &
#350000
b1001 +
b1011 ,
b111011 #
b1010 %
b1010 &
#351000
b1010 +
b1010 ,
b111100 #
b1011 %
b1001 &
#352000
b1011 +
b1001 ,
b111101 #
b1100 %
b1000 &
#353000
b1100 +
b1000 ,
b111110 #
b1101 %
b111 &
#354000
b1101 +
b111 ,
b111111 #
b1110 %
b110 &
#355000
b1110 +
b110 ,
b1000000 #
b1111 %
b101 &
#356000
b1111 +
b101 ,
b1000001 #
b101 $
b0 %
#357000
b101 *
b0 +
0-
b1 %
b100 &
#358000
b1 +
b100 ,
b10 %
b11 &
#359000
b10 +
b11 ,
b11 %
b10 &
#360000
b11 +
b10 ,
b100 %
b1 &
#361000
b100 +
b1 ,
b101 %
b0 &
#362000
b101 +
b0 ,
b110 %
b1111 &
#363000
b110 +
b1111 ,
1-
b1000010 #
b111 %
b1110 &
#364000
b111 +
b1110 ,
b1000011 #
b1000 %
b1101 &
#365000
b1000 +
b1101 ,
b1000100 #
b1001 %
b1100 &
#366000
b1001 +
b1100 ,
b1000101 #
b1010 %
b1011 &
#367000
b1010 +
b1011 ,
b1000110 #
b1011 %
b1010 &
#368000
b1011 +
b1010 ,
b1000111 #
b1100 %
b1001 &
#369000
b1100 +
b1001 ,
b1001000 #
b1101 %
b1000 &
#370000
b1101 +
b1000 ,
b1001001 #
b1110 %
b111 &
#371000
b1110 +
b111 ,
b1001010 #
b1111 %
b110 &
#372000
b1111 +
b110 ,
b1001011 #
b110 $
b0 %
#373000
b110 *
b0 +
0-
b1 %
b101 &
#374000
b1 +
b101 ,
b10 %
b100 &
#375000
b10 +
b100 ,
b11 %
b11 &
#376000
b11 +
b11 ,
b100 %
b10 &
#377000
b100 +
b10 ,
b101 %
b1 &
#378000
b101 +
b1 ,
b110 %
b0 &
#379000
b110 +
b0 ,
b111 %
b1111 &
#380000
b111 +
b1111 ,
1-
b1001100 #
b1000 %
b1110 &
#381000
b1000 +
b1110 ,
b1001101 #
b1001 %
b1101 &
#382000
b1001 +
b1101 ,
b1001110 #
b1010 %
b1100 &
#383000
b1010 +
b1100 ,
b1001111 #
b1011 %
b1011 &
#384000
b1011 +
b1011 ,
b1010000 #
b1100 %
b1010 &
#385000
b1100 +
b1010 ,
b1010001 #
b1101 %
b1001 &
#386000
b1101 +
b1001 ,
b1010010 #
b1110 %
b1000 &
#387000
b1110 +
b1000 ,
b1010011 #
b1111 %
b111 &
#388000
b1111 +
b111 ,
b1010100 #
b111 $
b0 %
#389000
b111 *
b0 +
0-
b1 %
b110 &
#390000
b1 +
b110 ,
b10 %
b101 &
#391000
b10 +
b101 ,
b11 %
b100 &
#392000
b11 +
b100 ,
b100 %
b11 &
#393000
b100 +
b11 ,
b101 %
b10 &
#394000
b101 +
b10 ,
b110 %
b1 &
#395000
b110 +
b1 ,
b111 %
b0 &
#396000
b111 +
b0 ,
b1000 %
b1111 &
#397000
b1000 +
b1111 ,
1-
b1010101 #
b1001 %
b1110 &
#398000
b1001 +
b1110 ,
b1010110 #
b1010 %
b1101 &
#399000
b1010 +
b1101 ,
b1010111 #
b1011 %
b1100 &
#400000
b1011 +
b1100 ,
b1011000 #
b1100 %
b1011 &
#401000
b1100 +
b1011 ,
b1011001 #
b1101 %
b1010 &
#402000
b1101 +
b1010 ,
b1011010 #
b1110 %
b1001 &
#403000
b1110 +
b1001 ,
b1011011 #
b1111 %
b1000 &
#404000
b1111 +
b1000 ,
b1011100 #
b1000 $
b0 %
#405000
b1000 *
b0 +
0-
b1 %
b111 &
#406000
b1 +
b111 ,
b10 %
b110 &
#407000
b10 +
b110 ,
b11 %
b101 &
#408000
b11 +
b101 ,
b100 %
b100 &
#409000
b100 +
b100 ,
b101 %
b11 &
#410000
b101 +
b11 ,
b110 %
b10 &
#411000
b110 +
b10 ,
b111 %
b1 &
#412000
b111 +
b1 ,
b1000 %
b0 &
#413000
b1000 +
b0 ,
b1001 %
b1111 &
#414000
b1001 +
b1111 ,
1-
b1011101 #
b1010 %
b1110 &
#415000
b1010 +
b1110 ,
b1011110 #
b1011 %
b1101 &
#416000
b1011 +
b1101 ,
b1011111 #
b1100 %
b1100 &
#417000
b1100 +
b1100 ,
b1100000 #
b1101 %
b1011 &
#418000
b1101 +
b1011 ,
b1100001 #
b1110 %
b1010 &
#419000
b1110 +
b1010 ,
b1100010 #
b1111 %
b1001 &
#420000
b1111 +
b1001 ,
b1100011 #
b1001 $
b0 %
#421000
b1001 *
b0 +
0-
b1 %
b1000 &
#422000
b1 +
b1000 ,
b10 %
b111 &
#423000
b10 +
b111 ,
b11 %
b110 &
#424000
b11 +
b110 ,
b100 %
b101 &
#425000
b100 +
b101 ,
b101 %
b100 &
#426000
b101 +
b100 ,
b110 %
b11 &
#427000
b110 +
b11 ,
b111 %
b10 &
#428000
b111 +
b10 ,
b1000 %
b1 &
#429000
b1000 +
b1 ,
b1001 %
b0 &
#430000
b1001 +
b0 ,
b1010 %
b1111 &
#431000
b1010 +
b1111 ,
1-
b1100100 #
b1011 %
b1110 &
#432000
b1011 +
b1110 ,
b1100101 #
b1100 %
b1101 &
#433000
b1100 +
b1101 ,
b1100110 #
b1101 %
b1100 &
#434000
b1101 +
b1100 ,
b1100111 #
b1110 %
b1011 &
#435000
b1110 +
b1011 ,
b1101000 #
b1111 %
b1010 &
#436000
b1111 +
b1010 ,
b1101001 #
b1010 $
b0 %
#437000
b1010 *
b0 +
0-
b1 %
b1001 &
#438000
b1 +
b1001 ,
b10 %
b1000 &
#439000
b10 +
b1000 ,
b11 %
b111 &
#440000
b11 +
b111 ,
b100 %
b110 &
#441000
b100 +
b110 ,
b101 %
b101 &
#442000
b101 +
b101 ,
b110 %
b100 &
#443000
b110 +
b100 ,
b111 %
b11 &
#444000
b111 +
b11 ,
b1000 %
b10 &
#445000
b1000 +
b10 ,
b1001 %
b1 &
#446000
b1001 +
b1 ,
b1010 %
b0 &
#447000
b1010 +
b0 ,
b1011 %
b1111 &
#448000
b1011 +
b1111 ,
1-
b1101010 #
b1100 %
b1110 &
#449000
b1100 +
b1110 ,
b1101011 #
b1101 %
b1101 &
#450000
b1101 +
b1101 ,
b1101100 #
b1110 %
b1100 &
#451000
b1110 +
b1100 ,
b1101101 #
b1111 %
b1011 &
#452000
b1111 +
b1011 ,
b1101110 #
b1011 $
b0 %
#453000
b1011 *
b0 +
0-
b1 %
b1010 &
#454000
b1 +
b1010 ,
b10 %
b1001 &
#455000
b10 +
b1001 ,
b11 %
b1000 &
#456000
b11 +
b1000 ,
b100 %
b111 &
#457000
b100 +
b111 ,
b101 %
b110 &
#458000
b101 +
b110 ,
b110 %
b101 &
#459000
b110 +
b101 ,
b111 %
b100 &
#460000
b111 +
b100 ,
b1000 %
b11 &
#461000
b1000 +
b11 ,
b1001 %
b10 &
#462000
b1001 +
b10 ,
b1010 %
b1 &
#463000
b1010 +
b1 ,
b1011 %
b0 &
#464000
b1011 +
b0 ,
b1100 %
b1111 &
#465000
b1100 +
b1111 ,
1-
b1101111 #
b1101 %
b1110 &
#466000
b1101 +
b1110 ,
b1110000 #
b1110 %
b1101 &
#467000
b1110 +
b1101 ,
b1110001 #
b1111 %
b1100 &
#468000
b1111 +
b1100 ,
b1110010 #
b1100 $
b0 %
#469000
b1100 *
b0 +
0-
b1 %
b1011 &
#470000
b1 +
b1011 ,
b10 %
b1010 &
#471000
b10 +
b1010 ,
b11 %
b1001 &
#472000
b11 +
b1001 ,
b100 %
b1000 &
#473000
b100 +
b1000 ,
b101 %
b111 &
#474000
b101 +
b111 ,
b110 %
b110 &
#475000
b110 +
b110 ,
b111 %
b101 &
#476000
b111 +
b101 ,
b1000 %
b100 &
#477000
b1000 +
b100 ,
b1001 %
b11 &
#478000
b1001 +
b11 ,
b1010 %
b10 &
#479000
b1010 +
b10 ,
b1011 %
b1 &
#480000
b1011 +
b1 ,
b1100 %
b0 &
#481000
b1100 +
b0 ,
b1101 %
b1111 &
#482000
b1101 +
b1111 ,
1-
b1110011 #
b1110 %
b1110 &
#483000
b1110 +
b1110 ,
b1110100 #
b1111 %
b1101 &
#484000
b1111 +
b1101 ,
b1110101 #
b1101 $
b0 %
#485000
b1101 *
b0 +
0-
b1 %
b1100 &
#486000
b1 +
b1100 ,
b10 %
b1011 &
#487000
b10 +
b1011 ,
b11 %
b1010 &
#488000
b11 +
b1010 ,
b100 %
b1001 &
#489000
b100 +
b1001 ,
b101 %
b1000 &
#490000
b101 +
b1000 ,
b110 %
b111 &
#491000
b110 +
b111 ,
b111 %
b110 &
#492000
b111 +
b110 ,
b1000 %
b101 &
#493000
b1000 +
b101 ,
b1001 %
b100 &
#494000
b1001 +
b100 ,
b1010 %
b11 &
#495000
b1010 +
b11 ,
b1011 %
b10 &
#496000
b1011 +
b10 ,
b1100 %
b1 &
#497000
b1100 +
b1 ,
b1101 %
b0 &
#498000
b1101 +
b0 ,
b1110 %
b1111 &
#499000
b1110 +
b1111 ,
1-
b1110110 #
b1111 %
b1110 &
#500000
b1111 +
b1110 ,
b1110111 #
b1110 $
b0 %
#501000
b1110 *
b0 +
0-
b1 %
b1101 &
#502000
b1 +
b1101 ,
b10 %
b1100 &
#503000
b10 +
b1100 ,
b11 %
b1011 &
#504000
b11 +
b1011 ,
b100 %
b1010 &
#505000
b100 +
b1010 ,
b101 %
b1001 &
#506000
b101 +
b1001 ,
b110 %
b1000 &
#507000
b110 +
b1000 ,
b111 %
b111 &
#508000
b111 +
b111 ,
b1000 %
b110 &
#509000
b1000 +
b110 ,
b1001 %
b101 &
#510000
b1001 +
b101 ,
b1010 %
b100 &
#511000
b1010 +
b100 ,
b1011 %
b11 &
